%YAML 1.1
%TAG !u! tag:unity3d.com,2011:
--- !u!1001 &2687022839352260412
PrefabInstance:
  m_ObjectHideFlags: 0
  serializedVersion: 2
  m_Modification:
    m_TransformParent: {fileID: 0}
    m_Modifications:
    - target: {fileID: 4695378370577439913, guid: b17045447a46d99459ccad1a810e7b98,
        type: 3}
      propertyPath: m_RootOrder
      value: 0
      objectReference: {fileID: 0}
    - target: {fileID: 4695378370577439913, guid: b17045447a46d99459ccad1a810e7b98,
        type: 3}
      propertyPath: m_LocalPosition.x
      value: 0
      objectReference: {fileID: 0}
    - target: {fileID: 4695378370577439913, guid: b17045447a46d99459ccad1a810e7b98,
        type: 3}
      propertyPath: m_LocalPosition.y
      value: 0
      objectReference: {fileID: 0}
    - target: {fileID: 4695378370577439913, guid: b17045447a46d99459ccad1a810e7b98,
        type: 3}
      propertyPath: m_LocalPosition.z
      value: 0
      objectReference: {fileID: 0}
    - target: {fileID: 4695378370577439913, guid: b17045447a46d99459ccad1a810e7b98,
        type: 3}
      propertyPath: m_LocalRotation.w
      value: 1
      objectReference: {fileID: 0}
    - target: {fileID: 4695378370577439913, guid: b17045447a46d99459ccad1a810e7b98,
        type: 3}
      propertyPath: m_LocalRotation.x
      value: 0
      objectReference: {fileID: 0}
    - target: {fileID: 4695378370577439913, guid: b17045447a46d99459ccad1a810e7b98,
        type: 3}
      propertyPath: m_LocalRotation.y
      value: 0
      objectReference: {fileID: 0}
    - target: {fileID: 4695378370577439913, guid: b17045447a46d99459ccad1a810e7b98,
        type: 3}
      propertyPath: m_LocalRotation.z
      value: 0
      objectReference: {fileID: 0}
    - target: {fileID: 4695378370577439913, guid: b17045447a46d99459ccad1a810e7b98,
        type: 3}
      propertyPath: m_LocalEulerAnglesHint.x
      value: 0
      objectReference: {fileID: 0}
    - target: {fileID: 4695378370577439913, guid: b17045447a46d99459ccad1a810e7b98,
        type: 3}
      propertyPath: m_LocalEulerAnglesHint.y
      value: 0
      objectReference: {fileID: 0}
    - target: {fileID: 4695378370577439913, guid: b17045447a46d99459ccad1a810e7b98,
        type: 3}
      propertyPath: m_LocalEulerAnglesHint.z
      value: 0
      objectReference: {fileID: 0}
    - target: {fileID: 5359993208160011795, guid: b17045447a46d99459ccad1a810e7b98,
        type: 3}
      propertyPath: m_Name
      value: crystal_16
      objectReference: {fileID: 0}
    - target: {fileID: 5864382828443985862, guid: b17045447a46d99459ccad1a810e7b98,
        type: 3}
      propertyPath: m_Materials.Array.data[0]
      value: 
      objectReference: {fileID: 2100000, guid: dfe035098a0e15c429c304e4b774fd7e, type: 2}
    m_RemovedComponents: []
  m_SourcePrefab: {fileID: 100100000, guid: b17045447a46d99459ccad1a810e7b98, type: 3}
