%YAML 1.1
%TAG !u! tag:unity3d.com,2011:
--- !u!1001 &4158559907837573433
PrefabInstance:
  m_ObjectHideFlags: 0
  serializedVersion: 2
  m_Modification:
    m_TransformParent: {fileID: 0}
    m_Modifications:
    - target: {fileID: 2644936122033064232, guid: 8412ac15dde1e2544ba9d76115266c01,
        type: 3}
      propertyPath: m_Materials.Array.data[0]
      value: 
      objectReference: {fileID: 2100000, guid: 4a86af5ddee82584bb91b7258e823d4a, type: 2}
    - target: {fileID: 3818946652182327879, guid: 8412ac15dde1e2544ba9d76115266c01,
        type: 3}
      propertyPath: m_RootOrder
      value: 0
      objectReference: {fileID: 0}
    - target: {fileID: 3818946652182327879, guid: 8412ac15dde1e2544ba9d76115266c01,
        type: 3}
      propertyPath: m_LocalPosition.x
      value: 0
      objectReference: {fileID: 0}
    - target: {fileID: 3818946652182327879, guid: 8412ac15dde1e2544ba9d76115266c01,
        type: 3}
      propertyPath: m_LocalPosition.y
      value: 0
      objectReference: {fileID: 0}
    - target: {fileID: 3818946652182327879, guid: 8412ac15dde1e2544ba9d76115266c01,
        type: 3}
      propertyPath: m_LocalPosition.z
      value: 0
      objectReference: {fileID: 0}
    - target: {fileID: 3818946652182327879, guid: 8412ac15dde1e2544ba9d76115266c01,
        type: 3}
      propertyPath: m_LocalRotation.w
      value: 1
      objectReference: {fileID: 0}
    - target: {fileID: 3818946652182327879, guid: 8412ac15dde1e2544ba9d76115266c01,
        type: 3}
      propertyPath: m_LocalRotation.x
      value: 0
      objectReference: {fileID: 0}
    - target: {fileID: 3818946652182327879, guid: 8412ac15dde1e2544ba9d76115266c01,
        type: 3}
      propertyPath: m_LocalRotation.y
      value: 0
      objectReference: {fileID: 0}
    - target: {fileID: 3818946652182327879, guid: 8412ac15dde1e2544ba9d76115266c01,
        type: 3}
      propertyPath: m_LocalRotation.z
      value: 0
      objectReference: {fileID: 0}
    - target: {fileID: 3818946652182327879, guid: 8412ac15dde1e2544ba9d76115266c01,
        type: 3}
      propertyPath: m_LocalEulerAnglesHint.x
      value: 0
      objectReference: {fileID: 0}
    - target: {fileID: 3818946652182327879, guid: 8412ac15dde1e2544ba9d76115266c01,
        type: 3}
      propertyPath: m_LocalEulerAnglesHint.y
      value: 0
      objectReference: {fileID: 0}
    - target: {fileID: 3818946652182327879, guid: 8412ac15dde1e2544ba9d76115266c01,
        type: 3}
      propertyPath: m_LocalEulerAnglesHint.z
      value: 0
      objectReference: {fileID: 0}
    - target: {fileID: 4590380865398171901, guid: 8412ac15dde1e2544ba9d76115266c01,
        type: 3}
      propertyPath: m_Name
      value: crystal_19
      objectReference: {fileID: 0}
    m_RemovedComponents: []
  m_SourcePrefab: {fileID: 100100000, guid: 8412ac15dde1e2544ba9d76115266c01, type: 3}
