%YAML 1.1
%TAG !u! tag:unity3d.com,2011:
--- !u!1001 &937272723369100964
PrefabInstance:
  m_ObjectHideFlags: 0
  serializedVersion: 2
  m_Modification:
    m_TransformParent: {fileID: 0}
    m_Modifications:
    - target: {fileID: 4980943988720089569, guid: 44beb2ed26c88a54880ebb4c81614543,
        type: 3}
      propertyPath: m_RootOrder
      value: 0
      objectReference: {fileID: 0}
    - target: {fileID: 4980943988720089569, guid: 44beb2ed26c88a54880ebb4c81614543,
        type: 3}
      propertyPath: m_LocalPosition.x
      value: 0
      objectReference: {fileID: 0}
    - target: {fileID: 4980943988720089569, guid: 44beb2ed26c88a54880ebb4c81614543,
        type: 3}
      propertyPath: m_LocalPosition.y
      value: 0
      objectReference: {fileID: 0}
    - target: {fileID: 4980943988720089569, guid: 44beb2ed26c88a54880ebb4c81614543,
        type: 3}
      propertyPath: m_LocalPosition.z
      value: 0
      objectReference: {fileID: 0}
    - target: {fileID: 4980943988720089569, guid: 44beb2ed26c88a54880ebb4c81614543,
        type: 3}
      propertyPath: m_LocalRotation.w
      value: 1
      objectReference: {fileID: 0}
    - target: {fileID: 4980943988720089569, guid: 44beb2ed26c88a54880ebb4c81614543,
        type: 3}
      propertyPath: m_LocalRotation.x
      value: 0
      objectReference: {fileID: 0}
    - target: {fileID: 4980943988720089569, guid: 44beb2ed26c88a54880ebb4c81614543,
        type: 3}
      propertyPath: m_LocalRotation.y
      value: 0
      objectReference: {fileID: 0}
    - target: {fileID: 4980943988720089569, guid: 44beb2ed26c88a54880ebb4c81614543,
        type: 3}
      propertyPath: m_LocalRotation.z
      value: 0
      objectReference: {fileID: 0}
    - target: {fileID: 4980943988720089569, guid: 44beb2ed26c88a54880ebb4c81614543,
        type: 3}
      propertyPath: m_LocalEulerAnglesHint.x
      value: 0
      objectReference: {fileID: 0}
    - target: {fileID: 4980943988720089569, guid: 44beb2ed26c88a54880ebb4c81614543,
        type: 3}
      propertyPath: m_LocalEulerAnglesHint.y
      value: 0
      objectReference: {fileID: 0}
    - target: {fileID: 4980943988720089569, guid: 44beb2ed26c88a54880ebb4c81614543,
        type: 3}
      propertyPath: m_LocalEulerAnglesHint.z
      value: 0
      objectReference: {fileID: 0}
    - target: {fileID: 5644152203829011291, guid: 44beb2ed26c88a54880ebb4c81614543,
        type: 3}
      propertyPath: m_Name
      value: crystal_12
      objectReference: {fileID: 0}
    - target: {fileID: 6148806530882388622, guid: 44beb2ed26c88a54880ebb4c81614543,
        type: 3}
      propertyPath: m_Materials.Array.data[0]
      value: 
      objectReference: {fileID: 2100000, guid: 5113c693f224227419fa9e4a823bee10, type: 2}
    m_RemovedComponents: []
  m_SourcePrefab: {fileID: 100100000, guid: 44beb2ed26c88a54880ebb4c81614543, type: 3}
