%YAML 1.1
%TAG !u! tag:unity3d.com,2011:
--- !u!1001 &3627174817164817776
PrefabInstance:
  m_ObjectHideFlags: 0
  serializedVersion: 2
  m_Modification:
    m_TransformParent: {fileID: 0}
    m_Modifications:
    - target: {fileID: 5080657979948573864, guid: 2b046b9b2b8c4dc48accde397a4cec1c,
        type: 3}
      propertyPath: m_Materials.Array.data[0]
      value: 
      objectReference: {fileID: 2100000, guid: 4a86af5ddee82584bb91b7258e823d4a, type: 2}
    - target: {fileID: 6253586040763277255, guid: 2b046b9b2b8c4dc48accde397a4cec1c,
        type: 3}
      propertyPath: m_RootOrder
      value: 0
      objectReference: {fileID: 0}
    - target: {fileID: 6253586040763277255, guid: 2b046b9b2b8c4dc48accde397a4cec1c,
        type: 3}
      propertyPath: m_LocalPosition.x
      value: 0
      objectReference: {fileID: 0}
    - target: {fileID: 6253586040763277255, guid: 2b046b9b2b8c4dc48accde397a4cec1c,
        type: 3}
      propertyPath: m_LocalPosition.y
      value: 0
      objectReference: {fileID: 0}
    - target: {fileID: 6253586040763277255, guid: 2b046b9b2b8c4dc48accde397a4cec1c,
        type: 3}
      propertyPath: m_LocalPosition.z
      value: 0
      objectReference: {fileID: 0}
    - target: {fileID: 6253586040763277255, guid: 2b046b9b2b8c4dc48accde397a4cec1c,
        type: 3}
      propertyPath: m_LocalRotation.w
      value: 1
      objectReference: {fileID: 0}
    - target: {fileID: 6253586040763277255, guid: 2b046b9b2b8c4dc48accde397a4cec1c,
        type: 3}
      propertyPath: m_LocalRotation.x
      value: 0
      objectReference: {fileID: 0}
    - target: {fileID: 6253586040763277255, guid: 2b046b9b2b8c4dc48accde397a4cec1c,
        type: 3}
      propertyPath: m_LocalRotation.y
      value: 0
      objectReference: {fileID: 0}
    - target: {fileID: 6253586040763277255, guid: 2b046b9b2b8c4dc48accde397a4cec1c,
        type: 3}
      propertyPath: m_LocalRotation.z
      value: 0
      objectReference: {fileID: 0}
    - target: {fileID: 6253586040763277255, guid: 2b046b9b2b8c4dc48accde397a4cec1c,
        type: 3}
      propertyPath: m_LocalEulerAnglesHint.x
      value: 0
      objectReference: {fileID: 0}
    - target: {fileID: 6253586040763277255, guid: 2b046b9b2b8c4dc48accde397a4cec1c,
        type: 3}
      propertyPath: m_LocalEulerAnglesHint.y
      value: 0
      objectReference: {fileID: 0}
    - target: {fileID: 6253586040763277255, guid: 2b046b9b2b8c4dc48accde397a4cec1c,
        type: 3}
      propertyPath: m_LocalEulerAnglesHint.z
      value: 0
      objectReference: {fileID: 0}
    - target: {fileID: 6738198627979167101, guid: 2b046b9b2b8c4dc48accde397a4cec1c,
        type: 3}
      propertyPath: m_Name
      value: crystal_11
      objectReference: {fileID: 0}
    m_RemovedComponents: []
  m_SourcePrefab: {fileID: 100100000, guid: 2b046b9b2b8c4dc48accde397a4cec1c, type: 3}
