%YAML 1.1
%TAG !u! tag:unity3d.com,2011:
--- !u!1001 &2795942813044648247
PrefabInstance:
  m_ObjectHideFlags: 0
  serializedVersion: 2
  m_Modification:
    m_TransformParent: {fileID: 0}
    m_Modifications:
    - target: {fileID: 4925051054513105524, guid: c201f8a9c36990045b322704f6ec9868,
        type: 3}
      propertyPath: m_Name
      value: crystal_15
      objectReference: {fileID: 0}
    - target: {fileID: 5697787433682923726, guid: c201f8a9c36990045b322704f6ec9868,
        type: 3}
      propertyPath: m_RootOrder
      value: 0
      objectReference: {fileID: 0}
    - target: {fileID: 5697787433682923726, guid: c201f8a9c36990045b322704f6ec9868,
        type: 3}
      propertyPath: m_LocalPosition.x
      value: 0
      objectReference: {fileID: 0}
    - target: {fileID: 5697787433682923726, guid: c201f8a9c36990045b322704f6ec9868,
        type: 3}
      propertyPath: m_LocalPosition.y
      value: 0
      objectReference: {fileID: 0}
    - target: {fileID: 5697787433682923726, guid: c201f8a9c36990045b322704f6ec9868,
        type: 3}
      propertyPath: m_LocalPosition.z
      value: 0
      objectReference: {fileID: 0}
    - target: {fileID: 5697787433682923726, guid: c201f8a9c36990045b322704f6ec9868,
        type: 3}
      propertyPath: m_LocalRotation.w
      value: 1
      objectReference: {fileID: 0}
    - target: {fileID: 5697787433682923726, guid: c201f8a9c36990045b322704f6ec9868,
        type: 3}
      propertyPath: m_LocalRotation.x
      value: 0
      objectReference: {fileID: 0}
    - target: {fileID: 5697787433682923726, guid: c201f8a9c36990045b322704f6ec9868,
        type: 3}
      propertyPath: m_LocalRotation.y
      value: 0
      objectReference: {fileID: 0}
    - target: {fileID: 5697787433682923726, guid: c201f8a9c36990045b322704f6ec9868,
        type: 3}
      propertyPath: m_LocalRotation.z
      value: 0
      objectReference: {fileID: 0}
    - target: {fileID: 5697787433682923726, guid: c201f8a9c36990045b322704f6ec9868,
        type: 3}
      propertyPath: m_LocalEulerAnglesHint.x
      value: 0
      objectReference: {fileID: 0}
    - target: {fileID: 5697787433682923726, guid: c201f8a9c36990045b322704f6ec9868,
        type: 3}
      propertyPath: m_LocalEulerAnglesHint.y
      value: 0
      objectReference: {fileID: 0}
    - target: {fileID: 5697787433682923726, guid: c201f8a9c36990045b322704f6ec9868,
        type: 3}
      propertyPath: m_LocalEulerAnglesHint.z
      value: 0
      objectReference: {fileID: 0}
    - target: {fileID: 6870724635395427233, guid: c201f8a9c36990045b322704f6ec9868,
        type: 3}
      propertyPath: m_Materials.Array.data[0]
      value: 
      objectReference: {fileID: 2100000, guid: 11c096202cf376d4f872296cbea4bcbb, type: 2}
    m_RemovedComponents: []
  m_SourcePrefab: {fileID: 100100000, guid: c201f8a9c36990045b322704f6ec9868, type: 3}
