%YAML 1.1
%TAG !u! tag:unity3d.com,2011:
--- !u!1001 &1136125195422515935
PrefabInstance:
  m_ObjectHideFlags: 0
  serializedVersion: 2
  m_Modification:
    m_TransformParent: {fileID: 0}
    m_Modifications:
    - target: {fileID: 3346394660181062789, guid: 0b0b45735dd3b0246969ff9cd754a09d,
        type: 3}
      propertyPath: m_Materials.Array.data[0]
      value: 
      objectReference: {fileID: 2100000, guid: 4a86af5ddee82584bb91b7258e823d4a, type: 2}
    - target: {fileID: 3850635159086077264, guid: 0b0b45735dd3b0246969ff9cd754a09d,
        type: 3}
      propertyPath: m_Name
      value: crystal_1
      objectReference: {fileID: 0}
    - target: {fileID: 4484429547823222762, guid: 0b0b45735dd3b0246969ff9cd754a09d,
        type: 3}
      propertyPath: m_RootOrder
      value: 0
      objectReference: {fileID: 0}
    - target: {fileID: 4484429547823222762, guid: 0b0b45735dd3b0246969ff9cd754a09d,
        type: 3}
      propertyPath: m_LocalPosition.x
      value: 0
      objectReference: {fileID: 0}
    - target: {fileID: 4484429547823222762, guid: 0b0b45735dd3b0246969ff9cd754a09d,
        type: 3}
      propertyPath: m_LocalPosition.y
      value: 0
      objectReference: {fileID: 0}
    - target: {fileID: 4484429547823222762, guid: 0b0b45735dd3b0246969ff9cd754a09d,
        type: 3}
      propertyPath: m_LocalPosition.z
      value: 0
      objectReference: {fileID: 0}
    - target: {fileID: 4484429547823222762, guid: 0b0b45735dd3b0246969ff9cd754a09d,
        type: 3}
      propertyPath: m_LocalRotation.w
      value: 1
      objectReference: {fileID: 0}
    - target: {fileID: 4484429547823222762, guid: 0b0b45735dd3b0246969ff9cd754a09d,
        type: 3}
      propertyPath: m_LocalRotation.x
      value: 0
      objectReference: {fileID: 0}
    - target: {fileID: 4484429547823222762, guid: 0b0b45735dd3b0246969ff9cd754a09d,
        type: 3}
      propertyPath: m_LocalRotation.y
      value: 0
      objectReference: {fileID: 0}
    - target: {fileID: 4484429547823222762, guid: 0b0b45735dd3b0246969ff9cd754a09d,
        type: 3}
      propertyPath: m_LocalRotation.z
      value: 0
      objectReference: {fileID: 0}
    - target: {fileID: 4484429547823222762, guid: 0b0b45735dd3b0246969ff9cd754a09d,
        type: 3}
      propertyPath: m_LocalEulerAnglesHint.x
      value: 0
      objectReference: {fileID: 0}
    - target: {fileID: 4484429547823222762, guid: 0b0b45735dd3b0246969ff9cd754a09d,
        type: 3}
      propertyPath: m_LocalEulerAnglesHint.y
      value: 0
      objectReference: {fileID: 0}
    - target: {fileID: 4484429547823222762, guid: 0b0b45735dd3b0246969ff9cd754a09d,
        type: 3}
      propertyPath: m_LocalEulerAnglesHint.z
      value: 0
      objectReference: {fileID: 0}
    m_RemovedComponents: []
  m_SourcePrefab: {fileID: 100100000, guid: 0b0b45735dd3b0246969ff9cd754a09d, type: 3}
