%YAML 1.1
%TAG !u! tag:unity3d.com,2011:
--- !u!65 &774093249926161277
BoxCollider:
  m_ObjectHideFlags: 0
  m_CorrespondingSourceObject: {fileID: 0}
  m_PrefabInstance: {fileID: 0}
  m_PrefabAsset: {fileID: 0}
  m_GameObject: {fileID: 2330981248444923881}
  m_Material: {fileID: 0}
  m_IsTrigger: 0
  m_Enabled: 1
  serializedVersion: 2
  m_Size: {x: 4.045616, y: 14.659499, z: 4.2333717}
  m_Center: {x: 0.1936503, y: 1.0022779, z: -0.07707274}
--- !u!1001 &3213360981269463736
PrefabInstance:
  m_ObjectHideFlags: 0
  serializedVersion: 2
  m_Modification:
    m_TransformParent: {fileID: 0}
    m_Modifications:
    - target: {fileID: -8679921383154817045, guid: 597967b1d9ce5544f85ff6c4fd910ffb,
        type: 3}
      propertyPath: m_RootOrder
      value: 0
      objectReference: {fileID: 0}
    - target: {fileID: -8679921383154817045, guid: 597967b1d9ce5544f85ff6c4fd910ffb,
        type: 3}
      propertyPath: m_LocalPosition.x
      value: 0
      objectReference: {fileID: 0}
    - target: {fileID: -8679921383154817045, guid: 597967b1d9ce5544f85ff6c4fd910ffb,
        type: 3}
      propertyPath: m_LocalPosition.y
      value: 0
      objectReference: {fileID: 0}
    - target: {fileID: -8679921383154817045, guid: 597967b1d9ce5544f85ff6c4fd910ffb,
        type: 3}
      propertyPath: m_LocalPosition.z
      value: 0
      objectReference: {fileID: 0}
    - target: {fileID: -8679921383154817045, guid: 597967b1d9ce5544f85ff6c4fd910ffb,
        type: 3}
      propertyPath: m_LocalRotation.w
      value: 1
      objectReference: {fileID: 0}
    - target: {fileID: -8679921383154817045, guid: 597967b1d9ce5544f85ff6c4fd910ffb,
        type: 3}
      propertyPath: m_LocalRotation.x
      value: 0
      objectReference: {fileID: 0}
    - target: {fileID: -8679921383154817045, guid: 597967b1d9ce5544f85ff6c4fd910ffb,
        type: 3}
      propertyPath: m_LocalRotation.y
      value: 0
      objectReference: {fileID: 0}
    - target: {fileID: -8679921383154817045, guid: 597967b1d9ce5544f85ff6c4fd910ffb,
        type: 3}
      propertyPath: m_LocalRotation.z
      value: 0
      objectReference: {fileID: 0}
    - target: {fileID: -8679921383154817045, guid: 597967b1d9ce5544f85ff6c4fd910ffb,
        type: 3}
      propertyPath: m_LocalEulerAnglesHint.x
      value: 0
      objectReference: {fileID: 0}
    - target: {fileID: -8679921383154817045, guid: 597967b1d9ce5544f85ff6c4fd910ffb,
        type: 3}
      propertyPath: m_LocalEulerAnglesHint.y
      value: 0
      objectReference: {fileID: 0}
    - target: {fileID: -8679921383154817045, guid: 597967b1d9ce5544f85ff6c4fd910ffb,
        type: 3}
      propertyPath: m_LocalEulerAnglesHint.z
      value: 0
      objectReference: {fileID: 0}
    - target: {fileID: -7511558181221131132, guid: 597967b1d9ce5544f85ff6c4fd910ffb,
        type: 3}
      propertyPath: m_Materials.Array.data[0]
      value: 
      objectReference: {fileID: 2100000, guid: 2c22d6bd533949b40ae97dd3ee68061c, type: 2}
    - target: {fileID: 919132149155446097, guid: 597967b1d9ce5544f85ff6c4fd910ffb,
        type: 3}
      propertyPath: m_Name
      value: crystal_8
      objectReference: {fileID: 0}
    m_RemovedComponents: []
  m_SourcePrefab: {fileID: 100100000, guid: 597967b1d9ce5544f85ff6c4fd910ffb, type: 3}
--- !u!1 &2330981248444923881 stripped
GameObject:
  m_CorrespondingSourceObject: {fileID: 919132149155446097, guid: 597967b1d9ce5544f85ff6c4fd910ffb,
    type: 3}
  m_PrefabInstance: {fileID: 3213360981269463736}
  m_PrefabAsset: {fileID: 0}
