%YAML 1.1
%TAG !u! tag:unity3d.com,2011:
--- !u!1001 &5357217296861073184
PrefabInstance:
  m_ObjectHideFlags: 0
  serializedVersion: 2
  m_Modification:
    m_TransformParent: {fileID: 0}
    m_Modifications:
    - target: {fileID: 195421479758252218, guid: 86e351b7d784afc4a92a951d5b5e91d1,
        type: 3}
      propertyPath: m_Name
      value: crystal_26
      objectReference: {fileID: 0}
    - target: {fileID: 719896856402366976, guid: 86e351b7d784afc4a92a951d5b5e91d1,
        type: 3}
      propertyPath: m_RootOrder
      value: 0
      objectReference: {fileID: 0}
    - target: {fileID: 719896856402366976, guid: 86e351b7d784afc4a92a951d5b5e91d1,
        type: 3}
      propertyPath: m_LocalPosition.x
      value: 0
      objectReference: {fileID: 0}
    - target: {fileID: 719896856402366976, guid: 86e351b7d784afc4a92a951d5b5e91d1,
        type: 3}
      propertyPath: m_LocalPosition.y
      value: 0
      objectReference: {fileID: 0}
    - target: {fileID: 719896856402366976, guid: 86e351b7d784afc4a92a951d5b5e91d1,
        type: 3}
      propertyPath: m_LocalPosition.z
      value: 0
      objectReference: {fileID: 0}
    - target: {fileID: 719896856402366976, guid: 86e351b7d784afc4a92a951d5b5e91d1,
        type: 3}
      propertyPath: m_LocalRotation.w
      value: 1
      objectReference: {fileID: 0}
    - target: {fileID: 719896856402366976, guid: 86e351b7d784afc4a92a951d5b5e91d1,
        type: 3}
      propertyPath: m_LocalRotation.x
      value: 0
      objectReference: {fileID: 0}
    - target: {fileID: 719896856402366976, guid: 86e351b7d784afc4a92a951d5b5e91d1,
        type: 3}
      propertyPath: m_LocalRotation.y
      value: 0
      objectReference: {fileID: 0}
    - target: {fileID: 719896856402366976, guid: 86e351b7d784afc4a92a951d5b5e91d1,
        type: 3}
      propertyPath: m_LocalRotation.z
      value: 0
      objectReference: {fileID: 0}
    - target: {fileID: 719896856402366976, guid: 86e351b7d784afc4a92a951d5b5e91d1,
        type: 3}
      propertyPath: m_LocalEulerAnglesHint.x
      value: 0
      objectReference: {fileID: 0}
    - target: {fileID: 719896856402366976, guid: 86e351b7d784afc4a92a951d5b5e91d1,
        type: 3}
      propertyPath: m_LocalEulerAnglesHint.y
      value: 0
      objectReference: {fileID: 0}
    - target: {fileID: 719896856402366976, guid: 86e351b7d784afc4a92a951d5b5e91d1,
        type: 3}
      propertyPath: m_LocalEulerAnglesHint.z
      value: 0
      objectReference: {fileID: 0}
    - target: {fileID: 1852873617031260527, guid: 86e351b7d784afc4a92a951d5b5e91d1,
        type: 3}
      propertyPath: m_Materials.Array.data[0]
      value: 
      objectReference: {fileID: 2100000, guid: 9660453e6fb7dd147b1028d29c780ab0, type: 2}
    m_RemovedComponents: []
  m_SourcePrefab: {fileID: 100100000, guid: 86e351b7d784afc4a92a951d5b5e91d1, type: 3}
