%YAML 1.1
%TAG !u! tag:unity3d.com,2011:
--- !u!1001 &1739869827132787217
PrefabInstance:
  m_ObjectHideFlags: 0
  serializedVersion: 2
  m_Modification:
    m_TransformParent: {fileID: 0}
    m_Modifications:
    - target: {fileID: 3366129309907487259, guid: daa21c1f430b5754a83ede2e379d59e8,
        type: 3}
      propertyPath: m_Materials.Array.data[0]
      value: 
      objectReference: {fileID: 2100000, guid: 2649277e34b3e164a8d3feb28fa37fad, type: 2}
    - target: {fileID: 3870308099461917646, guid: daa21c1f430b5754a83ede2e379d59e8,
        type: 3}
      propertyPath: m_Name
      value: crystal_2
      objectReference: {fileID: 0}
    - target: {fileID: 4539004011122979188, guid: daa21c1f430b5754a83ede2e379d59e8,
        type: 3}
      propertyPath: m_RootOrder
      value: 0
      objectReference: {fileID: 0}
    - target: {fileID: 4539004011122979188, guid: daa21c1f430b5754a83ede2e379d59e8,
        type: 3}
      propertyPath: m_LocalPosition.x
      value: 0
      objectReference: {fileID: 0}
    - target: {fileID: 4539004011122979188, guid: daa21c1f430b5754a83ede2e379d59e8,
        type: 3}
      propertyPath: m_LocalPosition.y
      value: 0
      objectReference: {fileID: 0}
    - target: {fileID: 4539004011122979188, guid: daa21c1f430b5754a83ede2e379d59e8,
        type: 3}
      propertyPath: m_LocalPosition.z
      value: 0
      objectReference: {fileID: 0}
    - target: {fileID: 4539004011122979188, guid: daa21c1f430b5754a83ede2e379d59e8,
        type: 3}
      propertyPath: m_LocalRotation.w
      value: 1
      objectReference: {fileID: 0}
    - target: {fileID: 4539004011122979188, guid: daa21c1f430b5754a83ede2e379d59e8,
        type: 3}
      propertyPath: m_LocalRotation.x
      value: 0
      objectReference: {fileID: 0}
    - target: {fileID: 4539004011122979188, guid: daa21c1f430b5754a83ede2e379d59e8,
        type: 3}
      propertyPath: m_LocalRotation.y
      value: 0
      objectReference: {fileID: 0}
    - target: {fileID: 4539004011122979188, guid: daa21c1f430b5754a83ede2e379d59e8,
        type: 3}
      propertyPath: m_LocalRotation.z
      value: 0
      objectReference: {fileID: 0}
    - target: {fileID: 4539004011122979188, guid: daa21c1f430b5754a83ede2e379d59e8,
        type: 3}
      propertyPath: m_LocalEulerAnglesHint.x
      value: 0
      objectReference: {fileID: 0}
    - target: {fileID: 4539004011122979188, guid: daa21c1f430b5754a83ede2e379d59e8,
        type: 3}
      propertyPath: m_LocalEulerAnglesHint.y
      value: 0
      objectReference: {fileID: 0}
    - target: {fileID: 4539004011122979188, guid: daa21c1f430b5754a83ede2e379d59e8,
        type: 3}
      propertyPath: m_LocalEulerAnglesHint.z
      value: 0
      objectReference: {fileID: 0}
    m_RemovedComponents: []
  m_SourcePrefab: {fileID: 100100000, guid: daa21c1f430b5754a83ede2e379d59e8, type: 3}
