%YAML 1.1
%TAG !u! tag:unity3d.com,2011:
--- !u!1001 &7917875636386063879
PrefabInstance:
  m_ObjectHideFlags: 0
  serializedVersion: 2
  m_Modification:
    m_TransformParent: {fileID: 0}
    m_Modifications:
    - target: {fileID: 7163491672281118936, guid: 4109e3a11473fb048a2daa1e4ace5c93,
        type: 3}
      propertyPath: m_RootOrder
      value: 0
      objectReference: {fileID: 0}
    - target: {fileID: 7163491672281118936, guid: 4109e3a11473fb048a2daa1e4ace5c93,
        type: 3}
      propertyPath: m_LocalPosition.x
      value: 0
      objectReference: {fileID: 0}
    - target: {fileID: 7163491672281118936, guid: 4109e3a11473fb048a2daa1e4ace5c93,
        type: 3}
      propertyPath: m_LocalPosition.y
      value: 0
      objectReference: {fileID: 0}
    - target: {fileID: 7163491672281118936, guid: 4109e3a11473fb048a2daa1e4ace5c93,
        type: 3}
      propertyPath: m_LocalPosition.z
      value: 0
      objectReference: {fileID: 0}
    - target: {fileID: 7163491672281118936, guid: 4109e3a11473fb048a2daa1e4ace5c93,
        type: 3}
      propertyPath: m_LocalRotation.w
      value: 1
      objectReference: {fileID: 0}
    - target: {fileID: 7163491672281118936, guid: 4109e3a11473fb048a2daa1e4ace5c93,
        type: 3}
      propertyPath: m_LocalRotation.x
      value: 0
      objectReference: {fileID: 0}
    - target: {fileID: 7163491672281118936, guid: 4109e3a11473fb048a2daa1e4ace5c93,
        type: 3}
      propertyPath: m_LocalRotation.y
      value: 0
      objectReference: {fileID: 0}
    - target: {fileID: 7163491672281118936, guid: 4109e3a11473fb048a2daa1e4ace5c93,
        type: 3}
      propertyPath: m_LocalRotation.z
      value: 0
      objectReference: {fileID: 0}
    - target: {fileID: 7163491672281118936, guid: 4109e3a11473fb048a2daa1e4ace5c93,
        type: 3}
      propertyPath: m_LocalEulerAnglesHint.x
      value: 0
      objectReference: {fileID: 0}
    - target: {fileID: 7163491672281118936, guid: 4109e3a11473fb048a2daa1e4ace5c93,
        type: 3}
      propertyPath: m_LocalEulerAnglesHint.y
      value: 0
      objectReference: {fileID: 0}
    - target: {fileID: 7163491672281118936, guid: 4109e3a11473fb048a2daa1e4ace5c93,
        type: 3}
      propertyPath: m_LocalEulerAnglesHint.z
      value: 0
      objectReference: {fileID: 0}
    - target: {fileID: 7503565513809240674, guid: 4109e3a11473fb048a2daa1e4ace5c93,
        type: 3}
      propertyPath: m_Name
      value: crystal_9
      objectReference: {fileID: 0}
    - target: {fileID: 8296467673371837367, guid: 4109e3a11473fb048a2daa1e4ace5c93,
        type: 3}
      propertyPath: m_Materials.Array.data[0]
      value: 
      objectReference: {fileID: 2100000, guid: 6b1f3f9d2dd85804f81e09fd76ff1c17, type: 2}
    m_RemovedComponents: []
  m_SourcePrefab: {fileID: 100100000, guid: 4109e3a11473fb048a2daa1e4ace5c93, type: 3}
