%YAML 1.1
%TAG !u! tag:unity3d.com,2011:
--- !u!1001 &7032909105814823207
PrefabInstance:
  m_ObjectHideFlags: 0
  serializedVersion: 2
  m_Modification:
    m_TransformParent: {fileID: 0}
    m_Modifications:
    - target: {fileID: 5665365333849231130, guid: ec11e14734150854e8d0f95504c2f033,
        type: 3}
      propertyPath: m_Materials.Array.data[0]
      value: 
      objectReference: {fileID: 2100000, guid: 11aaf4e279f9693448e5514c8c24b0c4, type: 2}
    - target: {fileID: 6169816800990785231, guid: ec11e14734150854e8d0f95504c2f033,
        type: 3}
      propertyPath: m_Name
      value: crystal_16
      objectReference: {fileID: 0}
    - target: {fileID: 6833164727107630197, guid: ec11e14734150854e8d0f95504c2f033,
        type: 3}
      propertyPath: m_RootOrder
      value: 0
      objectReference: {fileID: 0}
    - target: {fileID: 6833164727107630197, guid: ec11e14734150854e8d0f95504c2f033,
        type: 3}
      propertyPath: m_LocalPosition.x
      value: 0
      objectReference: {fileID: 0}
    - target: {fileID: 6833164727107630197, guid: ec11e14734150854e8d0f95504c2f033,
        type: 3}
      propertyPath: m_LocalPosition.y
      value: 0
      objectReference: {fileID: 0}
    - target: {fileID: 6833164727107630197, guid: ec11e14734150854e8d0f95504c2f033,
        type: 3}
      propertyPath: m_LocalPosition.z
      value: 0
      objectReference: {fileID: 0}
    - target: {fileID: 6833164727107630197, guid: ec11e14734150854e8d0f95504c2f033,
        type: 3}
      propertyPath: m_LocalRotation.w
      value: 1
      objectReference: {fileID: 0}
    - target: {fileID: 6833164727107630197, guid: ec11e14734150854e8d0f95504c2f033,
        type: 3}
      propertyPath: m_LocalRotation.x
      value: 0
      objectReference: {fileID: 0}
    - target: {fileID: 6833164727107630197, guid: ec11e14734150854e8d0f95504c2f033,
        type: 3}
      propertyPath: m_LocalRotation.y
      value: 0
      objectReference: {fileID: 0}
    - target: {fileID: 6833164727107630197, guid: ec11e14734150854e8d0f95504c2f033,
        type: 3}
      propertyPath: m_LocalRotation.z
      value: 0
      objectReference: {fileID: 0}
    - target: {fileID: 6833164727107630197, guid: ec11e14734150854e8d0f95504c2f033,
        type: 3}
      propertyPath: m_LocalEulerAnglesHint.x
      value: 0
      objectReference: {fileID: 0}
    - target: {fileID: 6833164727107630197, guid: ec11e14734150854e8d0f95504c2f033,
        type: 3}
      propertyPath: m_LocalEulerAnglesHint.y
      value: 0
      objectReference: {fileID: 0}
    - target: {fileID: 6833164727107630197, guid: ec11e14734150854e8d0f95504c2f033,
        type: 3}
      propertyPath: m_LocalEulerAnglesHint.z
      value: 0
      objectReference: {fileID: 0}
    m_RemovedComponents: []
  m_SourcePrefab: {fileID: 100100000, guid: ec11e14734150854e8d0f95504c2f033, type: 3}
