%YAML 1.1
%TAG !u! tag:unity3d.com,2011:
--- !u!1001 &8885819320023084760
PrefabInstance:
  m_ObjectHideFlags: 0
  serializedVersion: 2
  m_Modification:
    m_TransformParent: {fileID: 0}
    m_Modifications:
    - target: {fileID: 7856707362963868991, guid: 886b179bb8ea94d4eb3eacc1492a3d20,
        type: 3}
      propertyPath: m_Materials.Array.data[0]
      value: 
      objectReference: {fileID: 2100000, guid: 9778e5d91718dbe4a989bab532d77ff0, type: 2}
    - target: {fileID: 8505151011592596714, guid: 886b179bb8ea94d4eb3eacc1492a3d20,
        type: 3}
      propertyPath: m_Name
      value: crystal_12
      objectReference: {fileID: 0}
    - target: {fileID: 9026213543073527376, guid: 886b179bb8ea94d4eb3eacc1492a3d20,
        type: 3}
      propertyPath: m_RootOrder
      value: 0
      objectReference: {fileID: 0}
    - target: {fileID: 9026213543073527376, guid: 886b179bb8ea94d4eb3eacc1492a3d20,
        type: 3}
      propertyPath: m_LocalPosition.x
      value: 0
      objectReference: {fileID: 0}
    - target: {fileID: 9026213543073527376, guid: 886b179bb8ea94d4eb3eacc1492a3d20,
        type: 3}
      propertyPath: m_LocalPosition.y
      value: 0
      objectReference: {fileID: 0}
    - target: {fileID: 9026213543073527376, guid: 886b179bb8ea94d4eb3eacc1492a3d20,
        type: 3}
      propertyPath: m_LocalPosition.z
      value: 0
      objectReference: {fileID: 0}
    - target: {fileID: 9026213543073527376, guid: 886b179bb8ea94d4eb3eacc1492a3d20,
        type: 3}
      propertyPath: m_LocalRotation.w
      value: 1
      objectReference: {fileID: 0}
    - target: {fileID: 9026213543073527376, guid: 886b179bb8ea94d4eb3eacc1492a3d20,
        type: 3}
      propertyPath: m_LocalRotation.x
      value: 0
      objectReference: {fileID: 0}
    - target: {fileID: 9026213543073527376, guid: 886b179bb8ea94d4eb3eacc1492a3d20,
        type: 3}
      propertyPath: m_LocalRotation.y
      value: 0
      objectReference: {fileID: 0}
    - target: {fileID: 9026213543073527376, guid: 886b179bb8ea94d4eb3eacc1492a3d20,
        type: 3}
      propertyPath: m_LocalRotation.z
      value: 0
      objectReference: {fileID: 0}
    - target: {fileID: 9026213543073527376, guid: 886b179bb8ea94d4eb3eacc1492a3d20,
        type: 3}
      propertyPath: m_LocalEulerAnglesHint.x
      value: 0
      objectReference: {fileID: 0}
    - target: {fileID: 9026213543073527376, guid: 886b179bb8ea94d4eb3eacc1492a3d20,
        type: 3}
      propertyPath: m_LocalEulerAnglesHint.y
      value: 0
      objectReference: {fileID: 0}
    - target: {fileID: 9026213543073527376, guid: 886b179bb8ea94d4eb3eacc1492a3d20,
        type: 3}
      propertyPath: m_LocalEulerAnglesHint.z
      value: 0
      objectReference: {fileID: 0}
    m_RemovedComponents: []
  m_SourcePrefab: {fileID: 100100000, guid: 886b179bb8ea94d4eb3eacc1492a3d20, type: 3}
