%YAML 1.1
%TAG !u! tag:unity3d.com,2011:
--- !u!1001 &990447014640983792
PrefabInstance:
  m_ObjectHideFlags: 0
  serializedVersion: 2
  m_Modification:
    m_TransformParent: {fileID: 0}
    m_Modifications:
    - target: {fileID: 7059398003264506726, guid: 261b8a3b361879d4c85b3b464ff7ade3,
        type: 3}
      propertyPath: m_Name
      value: crystal_12
      objectReference: {fileID: 0}
    - target: {fileID: 7688723977016873436, guid: 261b8a3b361879d4c85b3b464ff7ade3,
        type: 3}
      propertyPath: m_RootOrder
      value: 0
      objectReference: {fileID: 0}
    - target: {fileID: 7688723977016873436, guid: 261b8a3b361879d4c85b3b464ff7ade3,
        type: 3}
      propertyPath: m_LocalPosition.x
      value: 0
      objectReference: {fileID: 0}
    - target: {fileID: 7688723977016873436, guid: 261b8a3b361879d4c85b3b464ff7ade3,
        type: 3}
      propertyPath: m_LocalPosition.y
      value: 0
      objectReference: {fileID: 0}
    - target: {fileID: 7688723977016873436, guid: 261b8a3b361879d4c85b3b464ff7ade3,
        type: 3}
      propertyPath: m_LocalPosition.z
      value: 0
      objectReference: {fileID: 0}
    - target: {fileID: 7688723977016873436, guid: 261b8a3b361879d4c85b3b464ff7ade3,
        type: 3}
      propertyPath: m_LocalRotation.w
      value: 1
      objectReference: {fileID: 0}
    - target: {fileID: 7688723977016873436, guid: 261b8a3b361879d4c85b3b464ff7ade3,
        type: 3}
      propertyPath: m_LocalRotation.x
      value: 0
      objectReference: {fileID: 0}
    - target: {fileID: 7688723977016873436, guid: 261b8a3b361879d4c85b3b464ff7ade3,
        type: 3}
      propertyPath: m_LocalRotation.y
      value: 0
      objectReference: {fileID: 0}
    - target: {fileID: 7688723977016873436, guid: 261b8a3b361879d4c85b3b464ff7ade3,
        type: 3}
      propertyPath: m_LocalRotation.z
      value: 0
      objectReference: {fileID: 0}
    - target: {fileID: 7688723977016873436, guid: 261b8a3b361879d4c85b3b464ff7ade3,
        type: 3}
      propertyPath: m_LocalEulerAnglesHint.x
      value: 0
      objectReference: {fileID: 0}
    - target: {fileID: 7688723977016873436, guid: 261b8a3b361879d4c85b3b464ff7ade3,
        type: 3}
      propertyPath: m_LocalEulerAnglesHint.y
      value: 0
      objectReference: {fileID: 0}
    - target: {fileID: 7688723977016873436, guid: 261b8a3b361879d4c85b3b464ff7ade3,
        type: 3}
      propertyPath: m_LocalEulerAnglesHint.z
      value: 0
      objectReference: {fileID: 0}
    - target: {fileID: 8861106478468131507, guid: 261b8a3b361879d4c85b3b464ff7ade3,
        type: 3}
      propertyPath: m_Materials.Array.data[0]
      value: 
      objectReference: {fileID: 2100000, guid: dfe035098a0e15c429c304e4b774fd7e, type: 2}
    m_RemovedComponents: []
  m_SourcePrefab: {fileID: 100100000, guid: 261b8a3b361879d4c85b3b464ff7ade3, type: 3}
