%YAML 1.1
%TAG !u! tag:unity3d.com,2011:
--- !u!1001 &6555328862297442
PrefabInstance:
  m_ObjectHideFlags: 0
  serializedVersion: 2
  m_Modification:
    m_TransformParent: {fileID: 0}
    m_Modifications:
    - target: {fileID: 5448472770662052296, guid: 8c9485b0f9297da47838d84553cf9d05,
        type: 3}
      propertyPath: m_Materials.Array.data[0]
      value: 
      objectReference: {fileID: 2100000, guid: e3f01dee0375f0342b422a1a06c1f860, type: 2}
    - target: {fileID: 5808554376420954141, guid: 8c9485b0f9297da47838d84553cf9d05,
        type: 3}
      propertyPath: m_Name
      value: crystal_8
      objectReference: {fileID: 0}
    - target: {fileID: 6618023995984628391, guid: 8c9485b0f9297da47838d84553cf9d05,
        type: 3}
      propertyPath: m_RootOrder
      value: 0
      objectReference: {fileID: 0}
    - target: {fileID: 6618023995984628391, guid: 8c9485b0f9297da47838d84553cf9d05,
        type: 3}
      propertyPath: m_LocalPosition.x
      value: 0
      objectReference: {fileID: 0}
    - target: {fileID: 6618023995984628391, guid: 8c9485b0f9297da47838d84553cf9d05,
        type: 3}
      propertyPath: m_LocalPosition.y
      value: 0
      objectReference: {fileID: 0}
    - target: {fileID: 6618023995984628391, guid: 8c9485b0f9297da47838d84553cf9d05,
        type: 3}
      propertyPath: m_LocalPosition.z
      value: 0
      objectReference: {fileID: 0}
    - target: {fileID: 6618023995984628391, guid: 8c9485b0f9297da47838d84553cf9d05,
        type: 3}
      propertyPath: m_LocalRotation.w
      value: 1
      objectReference: {fileID: 0}
    - target: {fileID: 6618023995984628391, guid: 8c9485b0f9297da47838d84553cf9d05,
        type: 3}
      propertyPath: m_LocalRotation.x
      value: 0
      objectReference: {fileID: 0}
    - target: {fileID: 6618023995984628391, guid: 8c9485b0f9297da47838d84553cf9d05,
        type: 3}
      propertyPath: m_LocalRotation.y
      value: 0
      objectReference: {fileID: 0}
    - target: {fileID: 6618023995984628391, guid: 8c9485b0f9297da47838d84553cf9d05,
        type: 3}
      propertyPath: m_LocalRotation.z
      value: 0
      objectReference: {fileID: 0}
    - target: {fileID: 6618023995984628391, guid: 8c9485b0f9297da47838d84553cf9d05,
        type: 3}
      propertyPath: m_LocalEulerAnglesHint.x
      value: 0
      objectReference: {fileID: 0}
    - target: {fileID: 6618023995984628391, guid: 8c9485b0f9297da47838d84553cf9d05,
        type: 3}
      propertyPath: m_LocalEulerAnglesHint.y
      value: 0
      objectReference: {fileID: 0}
    - target: {fileID: 6618023995984628391, guid: 8c9485b0f9297da47838d84553cf9d05,
        type: 3}
      propertyPath: m_LocalEulerAnglesHint.z
      value: 0
      objectReference: {fileID: 0}
    m_RemovedComponents: []
  m_SourcePrefab: {fileID: 100100000, guid: 8c9485b0f9297da47838d84553cf9d05, type: 3}
