%YAML 1.1
%TAG !u! tag:unity3d.com,2011:
--- !u!1001 &1257106954289432529
PrefabInstance:
  m_ObjectHideFlags: 0
  serializedVersion: 2
  m_Modification:
    m_TransformParent: {fileID: 0}
    m_Modifications:
    - target: {fileID: 4852015161355232767, guid: ab0a04a3e0b10a749b5cfde3c081a6d1,
        type: 3}
      propertyPath: m_Name
      value: crystal_12
      objectReference: {fileID: 0}
    - target: {fileID: 5196594016104431429, guid: ab0a04a3e0b10a749b5cfde3c081a6d1,
        type: 3}
      propertyPath: m_RootOrder
      value: 0
      objectReference: {fileID: 0}
    - target: {fileID: 5196594016104431429, guid: ab0a04a3e0b10a749b5cfde3c081a6d1,
        type: 3}
      propertyPath: m_LocalPosition.x
      value: 0
      objectReference: {fileID: 0}
    - target: {fileID: 5196594016104431429, guid: ab0a04a3e0b10a749b5cfde3c081a6d1,
        type: 3}
      propertyPath: m_LocalPosition.y
      value: 0
      objectReference: {fileID: 0}
    - target: {fileID: 5196594016104431429, guid: ab0a04a3e0b10a749b5cfde3c081a6d1,
        type: 3}
      propertyPath: m_LocalPosition.z
      value: 0
      objectReference: {fileID: 0}
    - target: {fileID: 5196594016104431429, guid: ab0a04a3e0b10a749b5cfde3c081a6d1,
        type: 3}
      propertyPath: m_LocalRotation.w
      value: 1
      objectReference: {fileID: 0}
    - target: {fileID: 5196594016104431429, guid: ab0a04a3e0b10a749b5cfde3c081a6d1,
        type: 3}
      propertyPath: m_LocalRotation.x
      value: 0
      objectReference: {fileID: 0}
    - target: {fileID: 5196594016104431429, guid: ab0a04a3e0b10a749b5cfde3c081a6d1,
        type: 3}
      propertyPath: m_LocalRotation.y
      value: 0
      objectReference: {fileID: 0}
    - target: {fileID: 5196594016104431429, guid: ab0a04a3e0b10a749b5cfde3c081a6d1,
        type: 3}
      propertyPath: m_LocalRotation.z
      value: 0
      objectReference: {fileID: 0}
    - target: {fileID: 5196594016104431429, guid: ab0a04a3e0b10a749b5cfde3c081a6d1,
        type: 3}
      propertyPath: m_LocalEulerAnglesHint.x
      value: 0
      objectReference: {fileID: 0}
    - target: {fileID: 5196594016104431429, guid: ab0a04a3e0b10a749b5cfde3c081a6d1,
        type: 3}
      propertyPath: m_LocalEulerAnglesHint.y
      value: 0
      objectReference: {fileID: 0}
    - target: {fileID: 5196594016104431429, guid: ab0a04a3e0b10a749b5cfde3c081a6d1,
        type: 3}
      propertyPath: m_LocalEulerAnglesHint.z
      value: 0
      objectReference: {fileID: 0}
    - target: {fileID: 6365044660755022890, guid: ab0a04a3e0b10a749b5cfde3c081a6d1,
        type: 3}
      propertyPath: m_Materials.Array.data[0]
      value: 
      objectReference: {fileID: 2100000, guid: 11c096202cf376d4f872296cbea4bcbb, type: 2}
    m_RemovedComponents: []
  m_SourcePrefab: {fileID: 100100000, guid: ab0a04a3e0b10a749b5cfde3c081a6d1, type: 3}
