%YAML 1.1
%TAG !u! tag:unity3d.com,2011:
--- !u!1001 &8554597227794311599
PrefabInstance:
  m_ObjectHideFlags: 0
  serializedVersion: 2
  m_Modification:
    m_TransformParent: {fileID: 0}
    m_Modifications:
    - target: {fileID: 4816636314375590241, guid: cfd466d47bc933041ae669dcac98a368,
        type: 3}
      propertyPath: m_Name
      value: crystal_14
      objectReference: {fileID: 0}
    - target: {fileID: 5301846829135743963, guid: cfd466d47bc933041ae669dcac98a368,
        type: 3}
      propertyPath: m_RootOrder
      value: 0
      objectReference: {fileID: 0}
    - target: {fileID: 5301846829135743963, guid: cfd466d47bc933041ae669dcac98a368,
        type: 3}
      propertyPath: m_LocalPosition.x
      value: 0
      objectReference: {fileID: 0}
    - target: {fileID: 5301846829135743963, guid: cfd466d47bc933041ae669dcac98a368,
        type: 3}
      propertyPath: m_LocalPosition.y
      value: 0
      objectReference: {fileID: 0}
    - target: {fileID: 5301846829135743963, guid: cfd466d47bc933041ae669dcac98a368,
        type: 3}
      propertyPath: m_LocalPosition.z
      value: 0
      objectReference: {fileID: 0}
    - target: {fileID: 5301846829135743963, guid: cfd466d47bc933041ae669dcac98a368,
        type: 3}
      propertyPath: m_LocalRotation.w
      value: 1
      objectReference: {fileID: 0}
    - target: {fileID: 5301846829135743963, guid: cfd466d47bc933041ae669dcac98a368,
        type: 3}
      propertyPath: m_LocalRotation.x
      value: 0
      objectReference: {fileID: 0}
    - target: {fileID: 5301846829135743963, guid: cfd466d47bc933041ae669dcac98a368,
        type: 3}
      propertyPath: m_LocalRotation.y
      value: 0
      objectReference: {fileID: 0}
    - target: {fileID: 5301846829135743963, guid: cfd466d47bc933041ae669dcac98a368,
        type: 3}
      propertyPath: m_LocalRotation.z
      value: 0
      objectReference: {fileID: 0}
    - target: {fileID: 5301846829135743963, guid: cfd466d47bc933041ae669dcac98a368,
        type: 3}
      propertyPath: m_LocalEulerAnglesHint.x
      value: 0
      objectReference: {fileID: 0}
    - target: {fileID: 5301846829135743963, guid: cfd466d47bc933041ae669dcac98a368,
        type: 3}
      propertyPath: m_LocalEulerAnglesHint.y
      value: 0
      objectReference: {fileID: 0}
    - target: {fileID: 5301846829135743963, guid: cfd466d47bc933041ae669dcac98a368,
        type: 3}
      propertyPath: m_LocalEulerAnglesHint.z
      value: 0
      objectReference: {fileID: 0}
    - target: {fileID: 6474167754448777396, guid: cfd466d47bc933041ae669dcac98a368,
        type: 3}
      propertyPath: m_Materials.Array.data[0]
      value: 
      objectReference: {fileID: 2100000, guid: 11aaf4e279f9693448e5514c8c24b0c4, type: 2}
    m_RemovedComponents: []
  m_SourcePrefab: {fileID: 100100000, guid: cfd466d47bc933041ae669dcac98a368, type: 3}
