%YAML 1.1
%TAG !u! tag:unity3d.com,2011:
--- !u!1001 &8247331718497399509
PrefabInstance:
  m_ObjectHideFlags: 0
  serializedVersion: 2
  m_Modification:
    m_TransformParent: {fileID: 0}
    m_Modifications:
    - target: {fileID: 7455690640205003062, guid: f5b890e3e5a2fc94aa182ebf808afb59,
        type: 3}
      propertyPath: m_Materials.Array.data[0]
      value: 
      objectReference: {fileID: 2100000, guid: 2649277e34b3e164a8d3feb28fa37fad, type: 2}
    - target: {fileID: 8591957684947796569, guid: f5b890e3e5a2fc94aa182ebf808afb59,
        type: 3}
      propertyPath: m_RootOrder
      value: 0
      objectReference: {fileID: 0}
    - target: {fileID: 8591957684947796569, guid: f5b890e3e5a2fc94aa182ebf808afb59,
        type: 3}
      propertyPath: m_LocalPosition.x
      value: 0
      objectReference: {fileID: 0}
    - target: {fileID: 8591957684947796569, guid: f5b890e3e5a2fc94aa182ebf808afb59,
        type: 3}
      propertyPath: m_LocalPosition.y
      value: 0
      objectReference: {fileID: 0}
    - target: {fileID: 8591957684947796569, guid: f5b890e3e5a2fc94aa182ebf808afb59,
        type: 3}
      propertyPath: m_LocalPosition.z
      value: 0
      objectReference: {fileID: 0}
    - target: {fileID: 8591957684947796569, guid: f5b890e3e5a2fc94aa182ebf808afb59,
        type: 3}
      propertyPath: m_LocalRotation.w
      value: 1
      objectReference: {fileID: 0}
    - target: {fileID: 8591957684947796569, guid: f5b890e3e5a2fc94aa182ebf808afb59,
        type: 3}
      propertyPath: m_LocalRotation.x
      value: 0
      objectReference: {fileID: 0}
    - target: {fileID: 8591957684947796569, guid: f5b890e3e5a2fc94aa182ebf808afb59,
        type: 3}
      propertyPath: m_LocalRotation.y
      value: 0
      objectReference: {fileID: 0}
    - target: {fileID: 8591957684947796569, guid: f5b890e3e5a2fc94aa182ebf808afb59,
        type: 3}
      propertyPath: m_LocalRotation.z
      value: 0
      objectReference: {fileID: 0}
    - target: {fileID: 8591957684947796569, guid: f5b890e3e5a2fc94aa182ebf808afb59,
        type: 3}
      propertyPath: m_LocalEulerAnglesHint.x
      value: 0
      objectReference: {fileID: 0}
    - target: {fileID: 8591957684947796569, guid: f5b890e3e5a2fc94aa182ebf808afb59,
        type: 3}
      propertyPath: m_LocalEulerAnglesHint.y
      value: 0
      objectReference: {fileID: 0}
    - target: {fileID: 8591957684947796569, guid: f5b890e3e5a2fc94aa182ebf808afb59,
        type: 3}
      propertyPath: m_LocalEulerAnglesHint.z
      value: 0
      objectReference: {fileID: 0}
    - target: {fileID: 8968658428292503779, guid: f5b890e3e5a2fc94aa182ebf808afb59,
        type: 3}
      propertyPath: m_Name
      value: crystal_7
      objectReference: {fileID: 0}
    m_RemovedComponents: []
  m_SourcePrefab: {fileID: 100100000, guid: f5b890e3e5a2fc94aa182ebf808afb59, type: 3}
