%YAML 1.1
%TAG !u! tag:unity3d.com,2011:
--- !u!1001 &5865340366172769861
PrefabInstance:
  m_ObjectHideFlags: 0
  serializedVersion: 2
  m_Modification:
    m_TransformParent: {fileID: 0}
    m_Modifications:
    - target: {fileID: 4926986219009658210, guid: eab459c9e56f60146ae56a974560aab2,
        type: 3}
      propertyPath: m_RootOrder
      value: 0
      objectReference: {fileID: 0}
    - target: {fileID: 4926986219009658210, guid: eab459c9e56f60146ae56a974560aab2,
        type: 3}
      propertyPath: m_LocalPosition.x
      value: 0
      objectReference: {fileID: 0}
    - target: {fileID: 4926986219009658210, guid: eab459c9e56f60146ae56a974560aab2,
        type: 3}
      propertyPath: m_LocalPosition.y
      value: 0
      objectReference: {fileID: 0}
    - target: {fileID: 4926986219009658210, guid: eab459c9e56f60146ae56a974560aab2,
        type: 3}
      propertyPath: m_LocalPosition.z
      value: 0
      objectReference: {fileID: 0}
    - target: {fileID: 4926986219009658210, guid: eab459c9e56f60146ae56a974560aab2,
        type: 3}
      propertyPath: m_LocalRotation.w
      value: 1
      objectReference: {fileID: 0}
    - target: {fileID: 4926986219009658210, guid: eab459c9e56f60146ae56a974560aab2,
        type: 3}
      propertyPath: m_LocalRotation.x
      value: 0
      objectReference: {fileID: 0}
    - target: {fileID: 4926986219009658210, guid: eab459c9e56f60146ae56a974560aab2,
        type: 3}
      propertyPath: m_LocalRotation.y
      value: 0
      objectReference: {fileID: 0}
    - target: {fileID: 4926986219009658210, guid: eab459c9e56f60146ae56a974560aab2,
        type: 3}
      propertyPath: m_LocalRotation.z
      value: 0
      objectReference: {fileID: 0}
    - target: {fileID: 4926986219009658210, guid: eab459c9e56f60146ae56a974560aab2,
        type: 3}
      propertyPath: m_LocalEulerAnglesHint.x
      value: 0
      objectReference: {fileID: 0}
    - target: {fileID: 4926986219009658210, guid: eab459c9e56f60146ae56a974560aab2,
        type: 3}
      propertyPath: m_LocalEulerAnglesHint.y
      value: 0
      objectReference: {fileID: 0}
    - target: {fileID: 4926986219009658210, guid: eab459c9e56f60146ae56a974560aab2,
        type: 3}
      propertyPath: m_LocalEulerAnglesHint.z
      value: 0
      objectReference: {fileID: 0}
    - target: {fileID: 5704929812521457624, guid: eab459c9e56f60146ae56a974560aab2,
        type: 3}
      propertyPath: m_Name
      value: crystal_6
      objectReference: {fileID: 0}
    - target: {fileID: 6064949019922085389, guid: eab459c9e56f60146ae56a974560aab2,
        type: 3}
      propertyPath: m_Materials.Array.data[0]
      value: 
      objectReference: {fileID: 2100000, guid: 11aaf4e279f9693448e5514c8c24b0c4, type: 2}
    m_RemovedComponents: []
  m_SourcePrefab: {fileID: 100100000, guid: eab459c9e56f60146ae56a974560aab2, type: 3}
