%YAML 1.1
%TAG !u! tag:unity3d.com,2011:
--- !u!1001 &5651722265662366518
PrefabInstance:
  m_ObjectHideFlags: 0
  serializedVersion: 2
  m_Modification:
    m_TransformParent: {fileID: 0}
    m_Modifications:
    - target: {fileID: 2403436387576890588, guid: 47667145d6abdb64082bb75ab794ff29,
        type: 3}
      propertyPath: m_Name
      value: crystal_16
      objectReference: {fileID: 0}
    - target: {fileID: 3031318397086637670, guid: 47667145d6abdb64082bb75ab794ff29,
        type: 3}
      propertyPath: m_RootOrder
      value: 0
      objectReference: {fileID: 0}
    - target: {fileID: 3031318397086637670, guid: 47667145d6abdb64082bb75ab794ff29,
        type: 3}
      propertyPath: m_LocalPosition.x
      value: 0
      objectReference: {fileID: 0}
    - target: {fileID: 3031318397086637670, guid: 47667145d6abdb64082bb75ab794ff29,
        type: 3}
      propertyPath: m_LocalPosition.y
      value: 0
      objectReference: {fileID: 0}
    - target: {fileID: 3031318397086637670, guid: 47667145d6abdb64082bb75ab794ff29,
        type: 3}
      propertyPath: m_LocalPosition.z
      value: 0
      objectReference: {fileID: 0}
    - target: {fileID: 3031318397086637670, guid: 47667145d6abdb64082bb75ab794ff29,
        type: 3}
      propertyPath: m_LocalRotation.w
      value: 1
      objectReference: {fileID: 0}
    - target: {fileID: 3031318397086637670, guid: 47667145d6abdb64082bb75ab794ff29,
        type: 3}
      propertyPath: m_LocalRotation.x
      value: 0
      objectReference: {fileID: 0}
    - target: {fileID: 3031318397086637670, guid: 47667145d6abdb64082bb75ab794ff29,
        type: 3}
      propertyPath: m_LocalRotation.y
      value: 0
      objectReference: {fileID: 0}
    - target: {fileID: 3031318397086637670, guid: 47667145d6abdb64082bb75ab794ff29,
        type: 3}
      propertyPath: m_LocalRotation.z
      value: 0
      objectReference: {fileID: 0}
    - target: {fileID: 3031318397086637670, guid: 47667145d6abdb64082bb75ab794ff29,
        type: 3}
      propertyPath: m_LocalEulerAnglesHint.x
      value: 0
      objectReference: {fileID: 0}
    - target: {fileID: 3031318397086637670, guid: 47667145d6abdb64082bb75ab794ff29,
        type: 3}
      propertyPath: m_LocalEulerAnglesHint.y
      value: 0
      objectReference: {fileID: 0}
    - target: {fileID: 3031318397086637670, guid: 47667145d6abdb64082bb75ab794ff29,
        type: 3}
      propertyPath: m_LocalEulerAnglesHint.z
      value: 0
      objectReference: {fileID: 0}
    - target: {fileID: 4204748901697938697, guid: 47667145d6abdb64082bb75ab794ff29,
        type: 3}
      propertyPath: m_Materials.Array.data[0]
      value: 
      objectReference: {fileID: 2100000, guid: 22bad0199371cb04184ff332bfae3f85, type: 2}
    m_RemovedComponents: []
  m_SourcePrefab: {fileID: 100100000, guid: 47667145d6abdb64082bb75ab794ff29, type: 3}
