%YAML 1.1
%TAG !u! tag:unity3d.com,2011:
--- !u!1001 &5363366159183867488
PrefabInstance:
  m_ObjectHideFlags: 0
  serializedVersion: 2
  m_Modification:
    m_TransformParent: {fileID: 0}
    m_Modifications:
    - target: {fileID: 5441169580684270237, guid: dd0bb08b5e338ba41951a5e15ebbb32e,
        type: 3}
      propertyPath: m_Materials.Array.data[0]
      value: 
      objectReference: {fileID: 2100000, guid: e3f01dee0375f0342b422a1a06c1f860, type: 2}
    - target: {fileID: 5801224110050081608, guid: dd0bb08b5e338ba41951a5e15ebbb32e,
        type: 3}
      propertyPath: m_Name
      value: crystal_22
      objectReference: {fileID: 0}
    - target: {fileID: 6614035485000409586, guid: dd0bb08b5e338ba41951a5e15ebbb32e,
        type: 3}
      propertyPath: m_RootOrder
      value: 0
      objectReference: {fileID: 0}
    - target: {fileID: 6614035485000409586, guid: dd0bb08b5e338ba41951a5e15ebbb32e,
        type: 3}
      propertyPath: m_LocalPosition.x
      value: 0
      objectReference: {fileID: 0}
    - target: {fileID: 6614035485000409586, guid: dd0bb08b5e338ba41951a5e15ebbb32e,
        type: 3}
      propertyPath: m_LocalPosition.y
      value: 0
      objectReference: {fileID: 0}
    - target: {fileID: 6614035485000409586, guid: dd0bb08b5e338ba41951a5e15ebbb32e,
        type: 3}
      propertyPath: m_LocalPosition.z
      value: 0
      objectReference: {fileID: 0}
    - target: {fileID: 6614035485000409586, guid: dd0bb08b5e338ba41951a5e15ebbb32e,
        type: 3}
      propertyPath: m_LocalRotation.w
      value: 1
      objectReference: {fileID: 0}
    - target: {fileID: 6614035485000409586, guid: dd0bb08b5e338ba41951a5e15ebbb32e,
        type: 3}
      propertyPath: m_LocalRotation.x
      value: 0
      objectReference: {fileID: 0}
    - target: {fileID: 6614035485000409586, guid: dd0bb08b5e338ba41951a5e15ebbb32e,
        type: 3}
      propertyPath: m_LocalRotation.y
      value: 0
      objectReference: {fileID: 0}
    - target: {fileID: 6614035485000409586, guid: dd0bb08b5e338ba41951a5e15ebbb32e,
        type: 3}
      propertyPath: m_LocalRotation.z
      value: 0
      objectReference: {fileID: 0}
    - target: {fileID: 6614035485000409586, guid: dd0bb08b5e338ba41951a5e15ebbb32e,
        type: 3}
      propertyPath: m_LocalEulerAnglesHint.x
      value: 0
      objectReference: {fileID: 0}
    - target: {fileID: 6614035485000409586, guid: dd0bb08b5e338ba41951a5e15ebbb32e,
        type: 3}
      propertyPath: m_LocalEulerAnglesHint.y
      value: 0
      objectReference: {fileID: 0}
    - target: {fileID: 6614035485000409586, guid: dd0bb08b5e338ba41951a5e15ebbb32e,
        type: 3}
      propertyPath: m_LocalEulerAnglesHint.z
      value: 0
      objectReference: {fileID: 0}
    m_RemovedComponents: []
  m_SourcePrefab: {fileID: 100100000, guid: dd0bb08b5e338ba41951a5e15ebbb32e, type: 3}
