%YAML 1.1
%TAG !u! tag:unity3d.com,2011:
--- !u!1001 &7247622573918661147
PrefabInstance:
  m_ObjectHideFlags: 0
  serializedVersion: 2
  m_Modification:
    m_TransformParent: {fileID: 0}
    m_Modifications:
    - target: {fileID: 1036873308816117519, guid: b7f51c0ea0b79714093a0d12d6cd2e8b,
        type: 3}
      propertyPath: m_Materials.Array.data[0]
      value: 
      objectReference: {fileID: 2100000, guid: 22bad0199371cb04184ff332bfae3f85, type: 2}
    - target: {fileID: 1541157650949877466, guid: b7f51c0ea0b79714093a0d12d6cd2e8b,
        type: 3}
      propertyPath: m_Name
      value: crystal_15
      objectReference: {fileID: 0}
    - target: {fileID: 2173156262253851744, guid: b7f51c0ea0b79714093a0d12d6cd2e8b,
        type: 3}
      propertyPath: m_RootOrder
      value: 0
      objectReference: {fileID: 0}
    - target: {fileID: 2173156262253851744, guid: b7f51c0ea0b79714093a0d12d6cd2e8b,
        type: 3}
      propertyPath: m_LocalPosition.x
      value: 0
      objectReference: {fileID: 0}
    - target: {fileID: 2173156262253851744, guid: b7f51c0ea0b79714093a0d12d6cd2e8b,
        type: 3}
      propertyPath: m_LocalPosition.y
      value: 0
      objectReference: {fileID: 0}
    - target: {fileID: 2173156262253851744, guid: b7f51c0ea0b79714093a0d12d6cd2e8b,
        type: 3}
      propertyPath: m_LocalPosition.z
      value: 0
      objectReference: {fileID: 0}
    - target: {fileID: 2173156262253851744, guid: b7f51c0ea0b79714093a0d12d6cd2e8b,
        type: 3}
      propertyPath: m_LocalRotation.w
      value: 1
      objectReference: {fileID: 0}
    - target: {fileID: 2173156262253851744, guid: b7f51c0ea0b79714093a0d12d6cd2e8b,
        type: 3}
      propertyPath: m_LocalRotation.x
      value: 0
      objectReference: {fileID: 0}
    - target: {fileID: 2173156262253851744, guid: b7f51c0ea0b79714093a0d12d6cd2e8b,
        type: 3}
      propertyPath: m_LocalRotation.y
      value: 0
      objectReference: {fileID: 0}
    - target: {fileID: 2173156262253851744, guid: b7f51c0ea0b79714093a0d12d6cd2e8b,
        type: 3}
      propertyPath: m_LocalRotation.z
      value: 0
      objectReference: {fileID: 0}
    - target: {fileID: 2173156262253851744, guid: b7f51c0ea0b79714093a0d12d6cd2e8b,
        type: 3}
      propertyPath: m_LocalEulerAnglesHint.x
      value: 0
      objectReference: {fileID: 0}
    - target: {fileID: 2173156262253851744, guid: b7f51c0ea0b79714093a0d12d6cd2e8b,
        type: 3}
      propertyPath: m_LocalEulerAnglesHint.y
      value: 0
      objectReference: {fileID: 0}
    - target: {fileID: 2173156262253851744, guid: b7f51c0ea0b79714093a0d12d6cd2e8b,
        type: 3}
      propertyPath: m_LocalEulerAnglesHint.z
      value: 0
      objectReference: {fileID: 0}
    m_RemovedComponents: []
  m_SourcePrefab: {fileID: 100100000, guid: b7f51c0ea0b79714093a0d12d6cd2e8b, type: 3}
