%YAML 1.1
%TAG !u! tag:unity3d.com,2011:
--- !u!1001 &2894168579870690996
PrefabInstance:
  m_ObjectHideFlags: 0
  serializedVersion: 2
  m_Modification:
    m_TransformParent: {fileID: 0}
    m_Modifications:
    - target: {fileID: 5159386422041680202, guid: e47837422a6be404bbab3097d81aab96,
        type: 3}
      propertyPath: m_Name
      value: crystal_21
      objectReference: {fileID: 0}
    - target: {fileID: 5535489301912273904, guid: e47837422a6be404bbab3097d81aab96,
        type: 3}
      propertyPath: m_RootOrder
      value: 0
      objectReference: {fileID: 0}
    - target: {fileID: 5535489301912273904, guid: e47837422a6be404bbab3097d81aab96,
        type: 3}
      propertyPath: m_LocalPosition.x
      value: 0
      objectReference: {fileID: 0}
    - target: {fileID: 5535489301912273904, guid: e47837422a6be404bbab3097d81aab96,
        type: 3}
      propertyPath: m_LocalPosition.y
      value: 0
      objectReference: {fileID: 0}
    - target: {fileID: 5535489301912273904, guid: e47837422a6be404bbab3097d81aab96,
        type: 3}
      propertyPath: m_LocalPosition.z
      value: 0
      objectReference: {fileID: 0}
    - target: {fileID: 5535489301912273904, guid: e47837422a6be404bbab3097d81aab96,
        type: 3}
      propertyPath: m_LocalRotation.w
      value: 1
      objectReference: {fileID: 0}
    - target: {fileID: 5535489301912273904, guid: e47837422a6be404bbab3097d81aab96,
        type: 3}
      propertyPath: m_LocalRotation.x
      value: 0
      objectReference: {fileID: 0}
    - target: {fileID: 5535489301912273904, guid: e47837422a6be404bbab3097d81aab96,
        type: 3}
      propertyPath: m_LocalRotation.y
      value: 0
      objectReference: {fileID: 0}
    - target: {fileID: 5535489301912273904, guid: e47837422a6be404bbab3097d81aab96,
        type: 3}
      propertyPath: m_LocalRotation.z
      value: 0
      objectReference: {fileID: 0}
    - target: {fileID: 5535489301912273904, guid: e47837422a6be404bbab3097d81aab96,
        type: 3}
      propertyPath: m_LocalEulerAnglesHint.x
      value: 0
      objectReference: {fileID: 0}
    - target: {fileID: 5535489301912273904, guid: e47837422a6be404bbab3097d81aab96,
        type: 3}
      propertyPath: m_LocalEulerAnglesHint.y
      value: 0
      objectReference: {fileID: 0}
    - target: {fileID: 5535489301912273904, guid: e47837422a6be404bbab3097d81aab96,
        type: 3}
      propertyPath: m_LocalEulerAnglesHint.z
      value: 0
      objectReference: {fileID: 0}
    - target: {fileID: 6672415921428707487, guid: e47837422a6be404bbab3097d81aab96,
        type: 3}
      propertyPath: m_Materials.Array.data[0]
      value: 
      objectReference: {fileID: 2100000, guid: dfe035098a0e15c429c304e4b774fd7e, type: 2}
    m_RemovedComponents: []
  m_SourcePrefab: {fileID: 100100000, guid: e47837422a6be404bbab3097d81aab96, type: 3}
