%YAML 1.1
%TAG !u! tag:unity3d.com,2011:
--- !u!1001 &5929881855685267302
PrefabInstance:
  m_ObjectHideFlags: 0
  serializedVersion: 2
  m_Modification:
    m_TransformParent: {fileID: 0}
    m_Modifications:
    - target: {fileID: 5080569012682022448, guid: ec43e15e666c43843a3b9d1b11a058f8,
        type: 3}
      propertyPath: m_RootOrder
      value: 0
      objectReference: {fileID: 0}
    - target: {fileID: 5080569012682022448, guid: ec43e15e666c43843a3b9d1b11a058f8,
        type: 3}
      propertyPath: m_LocalPosition.x
      value: 0
      objectReference: {fileID: 0}
    - target: {fileID: 5080569012682022448, guid: ec43e15e666c43843a3b9d1b11a058f8,
        type: 3}
      propertyPath: m_LocalPosition.y
      value: 0
      objectReference: {fileID: 0}
    - target: {fileID: 5080569012682022448, guid: ec43e15e666c43843a3b9d1b11a058f8,
        type: 3}
      propertyPath: m_LocalPosition.z
      value: 0
      objectReference: {fileID: 0}
    - target: {fileID: 5080569012682022448, guid: ec43e15e666c43843a3b9d1b11a058f8,
        type: 3}
      propertyPath: m_LocalRotation.w
      value: 1
      objectReference: {fileID: 0}
    - target: {fileID: 5080569012682022448, guid: ec43e15e666c43843a3b9d1b11a058f8,
        type: 3}
      propertyPath: m_LocalRotation.x
      value: 0
      objectReference: {fileID: 0}
    - target: {fileID: 5080569012682022448, guid: ec43e15e666c43843a3b9d1b11a058f8,
        type: 3}
      propertyPath: m_LocalRotation.y
      value: 0
      objectReference: {fileID: 0}
    - target: {fileID: 5080569012682022448, guid: ec43e15e666c43843a3b9d1b11a058f8,
        type: 3}
      propertyPath: m_LocalRotation.z
      value: 0
      objectReference: {fileID: 0}
    - target: {fileID: 5080569012682022448, guid: ec43e15e666c43843a3b9d1b11a058f8,
        type: 3}
      propertyPath: m_LocalEulerAnglesHint.x
      value: 0
      objectReference: {fileID: 0}
    - target: {fileID: 5080569012682022448, guid: ec43e15e666c43843a3b9d1b11a058f8,
        type: 3}
      propertyPath: m_LocalEulerAnglesHint.y
      value: 0
      objectReference: {fileID: 0}
    - target: {fileID: 5080569012682022448, guid: ec43e15e666c43843a3b9d1b11a058f8,
        type: 3}
      propertyPath: m_LocalEulerAnglesHint.z
      value: 0
      objectReference: {fileID: 0}
    - target: {fileID: 5605325902477296778, guid: ec43e15e666c43843a3b9d1b11a058f8,
        type: 3}
      propertyPath: m_Name
      value: crystal_6
      objectReference: {fileID: 0}
    - target: {fileID: 6254059822662755679, guid: ec43e15e666c43843a3b9d1b11a058f8,
        type: 3}
      propertyPath: m_Materials.Array.data[0]
      value: 
      objectReference: {fileID: 2100000, guid: 45c8edf248f346f4fa778819a24242c8, type: 2}
    m_RemovedComponents: []
  m_SourcePrefab: {fileID: 100100000, guid: ec43e15e666c43843a3b9d1b11a058f8, type: 3}
