%YAML 1.1
%TAG !u! tag:unity3d.com,2011:
--- !u!1001 &5235869133416548680
PrefabInstance:
  m_ObjectHideFlags: 0
  serializedVersion: 2
  m_Modification:
    m_TransformParent: {fileID: 0}
    m_Modifications:
    - target: {fileID: 5169517977000434873, guid: ed26df7175111df4589598f20b783a99,
        type: 3}
      propertyPath: m_Materials.Array.data[0]
      value: 
      objectReference: {fileID: 2100000, guid: 116926c1c70f0694aa160045ba77fd98, type: 2}
    - target: {fileID: 6338532704266790870, guid: ed26df7175111df4589598f20b783a99,
        type: 3}
      propertyPath: m_RootOrder
      value: 0
      objectReference: {fileID: 0}
    - target: {fileID: 6338532704266790870, guid: ed26df7175111df4589598f20b783a99,
        type: 3}
      propertyPath: m_LocalPosition.x
      value: 0
      objectReference: {fileID: 0}
    - target: {fileID: 6338532704266790870, guid: ed26df7175111df4589598f20b783a99,
        type: 3}
      propertyPath: m_LocalPosition.y
      value: 0
      objectReference: {fileID: 0}
    - target: {fileID: 6338532704266790870, guid: ed26df7175111df4589598f20b783a99,
        type: 3}
      propertyPath: m_LocalPosition.z
      value: 0
      objectReference: {fileID: 0}
    - target: {fileID: 6338532704266790870, guid: ed26df7175111df4589598f20b783a99,
        type: 3}
      propertyPath: m_LocalRotation.w
      value: 1
      objectReference: {fileID: 0}
    - target: {fileID: 6338532704266790870, guid: ed26df7175111df4589598f20b783a99,
        type: 3}
      propertyPath: m_LocalRotation.x
      value: 0
      objectReference: {fileID: 0}
    - target: {fileID: 6338532704266790870, guid: ed26df7175111df4589598f20b783a99,
        type: 3}
      propertyPath: m_LocalRotation.y
      value: 0
      objectReference: {fileID: 0}
    - target: {fileID: 6338532704266790870, guid: ed26df7175111df4589598f20b783a99,
        type: 3}
      propertyPath: m_LocalRotation.z
      value: 0
      objectReference: {fileID: 0}
    - target: {fileID: 6338532704266790870, guid: ed26df7175111df4589598f20b783a99,
        type: 3}
      propertyPath: m_LocalEulerAnglesHint.x
      value: 0
      objectReference: {fileID: 0}
    - target: {fileID: 6338532704266790870, guid: ed26df7175111df4589598f20b783a99,
        type: 3}
      propertyPath: m_LocalEulerAnglesHint.y
      value: 0
      objectReference: {fileID: 0}
    - target: {fileID: 6338532704266790870, guid: ed26df7175111df4589598f20b783a99,
        type: 3}
      propertyPath: m_LocalEulerAnglesHint.z
      value: 0
      objectReference: {fileID: 0}
    - target: {fileID: 6682547199713541484, guid: ed26df7175111df4589598f20b783a99,
        type: 3}
      propertyPath: m_Name
      value: crystal_2
      objectReference: {fileID: 0}
    m_RemovedComponents: []
  m_SourcePrefab: {fileID: 100100000, guid: ed26df7175111df4589598f20b783a99, type: 3}
