%YAML 1.1
%TAG !u! tag:unity3d.com,2011:
--- !u!1001 &1573962941610777917
PrefabInstance:
  m_ObjectHideFlags: 0
  serializedVersion: 2
  m_Modification:
    m_TransformParent: {fileID: 0}
    m_Modifications:
    - target: {fileID: 204290460247351880, guid: 8d83c7d748acb334498281de97705da4,
        type: 3}
      propertyPath: m_RootOrder
      value: 0
      objectReference: {fileID: 0}
    - target: {fileID: 204290460247351880, guid: 8d83c7d748acb334498281de97705da4,
        type: 3}
      propertyPath: m_LocalPosition.x
      value: 0
      objectReference: {fileID: 0}
    - target: {fileID: 204290460247351880, guid: 8d83c7d748acb334498281de97705da4,
        type: 3}
      propertyPath: m_LocalPosition.y
      value: 0
      objectReference: {fileID: 0}
    - target: {fileID: 204290460247351880, guid: 8d83c7d748acb334498281de97705da4,
        type: 3}
      propertyPath: m_LocalPosition.z
      value: 0
      objectReference: {fileID: 0}
    - target: {fileID: 204290460247351880, guid: 8d83c7d748acb334498281de97705da4,
        type: 3}
      propertyPath: m_LocalRotation.w
      value: 1
      objectReference: {fileID: 0}
    - target: {fileID: 204290460247351880, guid: 8d83c7d748acb334498281de97705da4,
        type: 3}
      propertyPath: m_LocalRotation.x
      value: 0
      objectReference: {fileID: 0}
    - target: {fileID: 204290460247351880, guid: 8d83c7d748acb334498281de97705da4,
        type: 3}
      propertyPath: m_LocalRotation.y
      value: 0
      objectReference: {fileID: 0}
    - target: {fileID: 204290460247351880, guid: 8d83c7d748acb334498281de97705da4,
        type: 3}
      propertyPath: m_LocalRotation.z
      value: 0
      objectReference: {fileID: 0}
    - target: {fileID: 204290460247351880, guid: 8d83c7d748acb334498281de97705da4,
        type: 3}
      propertyPath: m_LocalEulerAnglesHint.x
      value: 0
      objectReference: {fileID: 0}
    - target: {fileID: 204290460247351880, guid: 8d83c7d748acb334498281de97705da4,
        type: 3}
      propertyPath: m_LocalEulerAnglesHint.y
      value: 0
      objectReference: {fileID: 0}
    - target: {fileID: 204290460247351880, guid: 8d83c7d748acb334498281de97705da4,
        type: 3}
      propertyPath: m_LocalEulerAnglesHint.z
      value: 0
      objectReference: {fileID: 0}
    - target: {fileID: 693019686844709106, guid: 8d83c7d748acb334498281de97705da4,
        type: 3}
      propertyPath: m_Name
      value: crystal_9
      objectReference: {fileID: 0}
    - target: {fileID: 1341762403172653351, guid: 8d83c7d748acb334498281de97705da4,
        type: 3}
      propertyPath: m_Materials.Array.data[0]
      value: 
      objectReference: {fileID: 2100000, guid: 9660453e6fb7dd147b1028d29c780ab0, type: 2}
    m_RemovedComponents: []
  m_SourcePrefab: {fileID: 100100000, guid: 8d83c7d748acb334498281de97705da4, type: 3}
