%YAML 1.1
%TAG !u! tag:unity3d.com,2011:
--- !u!1001 &6563837185177943555
PrefabInstance:
  m_ObjectHideFlags: 0
  serializedVersion: 2
  m_Modification:
    m_TransformParent: {fileID: 0}
    m_Modifications:
    - target: {fileID: 7247023147701799808, guid: a5cf5194da430824782c9ce3a8aeb579,
        type: 3}
      propertyPath: m_Name
      value: crystal_2
      objectReference: {fileID: 0}
    - target: {fileID: 8059553841982263610, guid: a5cf5194da430824782c9ce3a8aeb579,
        type: 3}
      propertyPath: m_RootOrder
      value: 0
      objectReference: {fileID: 0}
    - target: {fileID: 8059553841982263610, guid: a5cf5194da430824782c9ce3a8aeb579,
        type: 3}
      propertyPath: m_LocalPosition.x
      value: 0
      objectReference: {fileID: 0}
    - target: {fileID: 8059553841982263610, guid: a5cf5194da430824782c9ce3a8aeb579,
        type: 3}
      propertyPath: m_LocalPosition.y
      value: 0
      objectReference: {fileID: 0}
    - target: {fileID: 8059553841982263610, guid: a5cf5194da430824782c9ce3a8aeb579,
        type: 3}
      propertyPath: m_LocalPosition.z
      value: 0
      objectReference: {fileID: 0}
    - target: {fileID: 8059553841982263610, guid: a5cf5194da430824782c9ce3a8aeb579,
        type: 3}
      propertyPath: m_LocalRotation.w
      value: 1
      objectReference: {fileID: 0}
    - target: {fileID: 8059553841982263610, guid: a5cf5194da430824782c9ce3a8aeb579,
        type: 3}
      propertyPath: m_LocalRotation.x
      value: 0
      objectReference: {fileID: 0}
    - target: {fileID: 8059553841982263610, guid: a5cf5194da430824782c9ce3a8aeb579,
        type: 3}
      propertyPath: m_LocalRotation.y
      value: 0
      objectReference: {fileID: 0}
    - target: {fileID: 8059553841982263610, guid: a5cf5194da430824782c9ce3a8aeb579,
        type: 3}
      propertyPath: m_LocalRotation.z
      value: 0
      objectReference: {fileID: 0}
    - target: {fileID: 8059553841982263610, guid: a5cf5194da430824782c9ce3a8aeb579,
        type: 3}
      propertyPath: m_LocalEulerAnglesHint.x
      value: 0
      objectReference: {fileID: 0}
    - target: {fileID: 8059553841982263610, guid: a5cf5194da430824782c9ce3a8aeb579,
        type: 3}
      propertyPath: m_LocalEulerAnglesHint.y
      value: 0
      objectReference: {fileID: 0}
    - target: {fileID: 8059553841982263610, guid: a5cf5194da430824782c9ce3a8aeb579,
        type: 3}
      propertyPath: m_LocalEulerAnglesHint.z
      value: 0
      objectReference: {fileID: 0}
    - target: {fileID: 9192521219044485717, guid: a5cf5194da430824782c9ce3a8aeb579,
        type: 3}
      propertyPath: m_Materials.Array.data[0]
      value: 
      objectReference: {fileID: 2100000, guid: 5113c693f224227419fa9e4a823bee10, type: 2}
    m_RemovedComponents: []
  m_SourcePrefab: {fileID: 100100000, guid: a5cf5194da430824782c9ce3a8aeb579, type: 3}
