%YAML 1.1
%TAG !u! tag:unity3d.com,2011:
--- !u!1001 &3444947147521029255
PrefabInstance:
  m_ObjectHideFlags: 0
  serializedVersion: 2
  m_Modification:
    m_TransformParent: {fileID: 0}
    m_Modifications:
    - target: {fileID: 4935442411233952025, guid: 4dfb356aee3a2bd40bea9ef89207152f,
        type: 3}
      propertyPath: m_Materials.Array.data[0]
      value: 
      objectReference: {fileID: 2100000, guid: 22bad0199371cb04184ff332bfae3f85, type: 2}
    - target: {fileID: 6067785098321771126, guid: 4dfb356aee3a2bd40bea9ef89207152f,
        type: 3}
      propertyPath: m_RootOrder
      value: 0
      objectReference: {fileID: 0}
    - target: {fileID: 6067785098321771126, guid: 4dfb356aee3a2bd40bea9ef89207152f,
        type: 3}
      propertyPath: m_LocalPosition.x
      value: 0
      objectReference: {fileID: 0}
    - target: {fileID: 6067785098321771126, guid: 4dfb356aee3a2bd40bea9ef89207152f,
        type: 3}
      propertyPath: m_LocalPosition.y
      value: 0
      objectReference: {fileID: 0}
    - target: {fileID: 6067785098321771126, guid: 4dfb356aee3a2bd40bea9ef89207152f,
        type: 3}
      propertyPath: m_LocalPosition.z
      value: 0
      objectReference: {fileID: 0}
    - target: {fileID: 6067785098321771126, guid: 4dfb356aee3a2bd40bea9ef89207152f,
        type: 3}
      propertyPath: m_LocalRotation.w
      value: 1
      objectReference: {fileID: 0}
    - target: {fileID: 6067785098321771126, guid: 4dfb356aee3a2bd40bea9ef89207152f,
        type: 3}
      propertyPath: m_LocalRotation.x
      value: 0
      objectReference: {fileID: 0}
    - target: {fileID: 6067785098321771126, guid: 4dfb356aee3a2bd40bea9ef89207152f,
        type: 3}
      propertyPath: m_LocalRotation.y
      value: 0
      objectReference: {fileID: 0}
    - target: {fileID: 6067785098321771126, guid: 4dfb356aee3a2bd40bea9ef89207152f,
        type: 3}
      propertyPath: m_LocalRotation.z
      value: 0
      objectReference: {fileID: 0}
    - target: {fileID: 6067785098321771126, guid: 4dfb356aee3a2bd40bea9ef89207152f,
        type: 3}
      propertyPath: m_LocalEulerAnglesHint.x
      value: 0
      objectReference: {fileID: 0}
    - target: {fileID: 6067785098321771126, guid: 4dfb356aee3a2bd40bea9ef89207152f,
        type: 3}
      propertyPath: m_LocalEulerAnglesHint.y
      value: 0
      objectReference: {fileID: 0}
    - target: {fileID: 6067785098321771126, guid: 4dfb356aee3a2bd40bea9ef89207152f,
        type: 3}
      propertyPath: m_LocalEulerAnglesHint.z
      value: 0
      objectReference: {fileID: 0}
    - target: {fileID: 6881160246988955852, guid: 4dfb356aee3a2bd40bea9ef89207152f,
        type: 3}
      propertyPath: m_Name
      value: crystal_24
      objectReference: {fileID: 0}
    m_RemovedComponents: []
  m_SourcePrefab: {fileID: 100100000, guid: 4dfb356aee3a2bd40bea9ef89207152f, type: 3}
