%YAML 1.1
%TAG !u! tag:unity3d.com,2011:
--- !u!1001 &6689305731651457960
PrefabInstance:
  m_ObjectHideFlags: 0
  serializedVersion: 2
  m_Modification:
    m_TransformParent: {fileID: 0}
    m_Modifications:
    - target: {fileID: 211679987267315532, guid: 012e3229adb91414ca9d48f91cabb758,
        type: 3}
      propertyPath: m_Materials.Array.data[0]
      value: 
      objectReference: {fileID: 2100000, guid: 5113c693f224227419fa9e4a823bee10, type: 2}
    - target: {fileID: 1349713259736816675, guid: 012e3229adb91414ca9d48f91cabb758,
        type: 3}
      propertyPath: m_RootOrder
      value: 0
      objectReference: {fileID: 0}
    - target: {fileID: 1349713259736816675, guid: 012e3229adb91414ca9d48f91cabb758,
        type: 3}
      propertyPath: m_LocalPosition.x
      value: 0
      objectReference: {fileID: 0}
    - target: {fileID: 1349713259736816675, guid: 012e3229adb91414ca9d48f91cabb758,
        type: 3}
      propertyPath: m_LocalPosition.y
      value: 0
      objectReference: {fileID: 0}
    - target: {fileID: 1349713259736816675, guid: 012e3229adb91414ca9d48f91cabb758,
        type: 3}
      propertyPath: m_LocalPosition.z
      value: 0
      objectReference: {fileID: 0}
    - target: {fileID: 1349713259736816675, guid: 012e3229adb91414ca9d48f91cabb758,
        type: 3}
      propertyPath: m_LocalRotation.w
      value: 1
      objectReference: {fileID: 0}
    - target: {fileID: 1349713259736816675, guid: 012e3229adb91414ca9d48f91cabb758,
        type: 3}
      propertyPath: m_LocalRotation.x
      value: 0
      objectReference: {fileID: 0}
    - target: {fileID: 1349713259736816675, guid: 012e3229adb91414ca9d48f91cabb758,
        type: 3}
      propertyPath: m_LocalRotation.y
      value: 0
      objectReference: {fileID: 0}
    - target: {fileID: 1349713259736816675, guid: 012e3229adb91414ca9d48f91cabb758,
        type: 3}
      propertyPath: m_LocalRotation.z
      value: 0
      objectReference: {fileID: 0}
    - target: {fileID: 1349713259736816675, guid: 012e3229adb91414ca9d48f91cabb758,
        type: 3}
      propertyPath: m_LocalEulerAnglesHint.x
      value: 0
      objectReference: {fileID: 0}
    - target: {fileID: 1349713259736816675, guid: 012e3229adb91414ca9d48f91cabb758,
        type: 3}
      propertyPath: m_LocalEulerAnglesHint.y
      value: 0
      objectReference: {fileID: 0}
    - target: {fileID: 1349713259736816675, guid: 012e3229adb91414ca9d48f91cabb758,
        type: 3}
      propertyPath: m_LocalEulerAnglesHint.z
      value: 0
      objectReference: {fileID: 0}
    - target: {fileID: 1869263928363517593, guid: 012e3229adb91414ca9d48f91cabb758,
        type: 3}
      propertyPath: m_Name
      value: crystal_23
      objectReference: {fileID: 0}
    m_RemovedComponents: []
  m_SourcePrefab: {fileID: 100100000, guid: 012e3229adb91414ca9d48f91cabb758, type: 3}
