%YAML 1.1
%TAG !u! tag:unity3d.com,2011:
--- !u!1001 &4522097547743374769
PrefabInstance:
  m_ObjectHideFlags: 0
  serializedVersion: 2
  m_Modification:
    m_TransformParent: {fileID: 0}
    m_Modifications:
    - target: {fileID: 834180968639006447, guid: f5b6b1a9ae3e1c64f8cfd90ebcfc569d,
        type: 3}
      propertyPath: m_Materials.Array.data[0]
      value: 
      objectReference: {fileID: 2100000, guid: 45c8edf248f346f4fa778819a24242c8, type: 2}
    - target: {fileID: 1194411970694031162, guid: f5b6b1a9ae3e1c64f8cfd90ebcfc569d,
        type: 3}
      propertyPath: m_Name
      value: crystal_3
      objectReference: {fileID: 0}
    - target: {fileID: 2006555907458170240, guid: f5b6b1a9ae3e1c64f8cfd90ebcfc569d,
        type: 3}
      propertyPath: m_RootOrder
      value: 0
      objectReference: {fileID: 0}
    - target: {fileID: 2006555907458170240, guid: f5b6b1a9ae3e1c64f8cfd90ebcfc569d,
        type: 3}
      propertyPath: m_LocalPosition.x
      value: 0
      objectReference: {fileID: 0}
    - target: {fileID: 2006555907458170240, guid: f5b6b1a9ae3e1c64f8cfd90ebcfc569d,
        type: 3}
      propertyPath: m_LocalPosition.y
      value: 0
      objectReference: {fileID: 0}
    - target: {fileID: 2006555907458170240, guid: f5b6b1a9ae3e1c64f8cfd90ebcfc569d,
        type: 3}
      propertyPath: m_LocalPosition.z
      value: 0
      objectReference: {fileID: 0}
    - target: {fileID: 2006555907458170240, guid: f5b6b1a9ae3e1c64f8cfd90ebcfc569d,
        type: 3}
      propertyPath: m_LocalRotation.w
      value: 1
      objectReference: {fileID: 0}
    - target: {fileID: 2006555907458170240, guid: f5b6b1a9ae3e1c64f8cfd90ebcfc569d,
        type: 3}
      propertyPath: m_LocalRotation.x
      value: 0
      objectReference: {fileID: 0}
    - target: {fileID: 2006555907458170240, guid: f5b6b1a9ae3e1c64f8cfd90ebcfc569d,
        type: 3}
      propertyPath: m_LocalRotation.y
      value: 0
      objectReference: {fileID: 0}
    - target: {fileID: 2006555907458170240, guid: f5b6b1a9ae3e1c64f8cfd90ebcfc569d,
        type: 3}
      propertyPath: m_LocalRotation.z
      value: 0
      objectReference: {fileID: 0}
    - target: {fileID: 2006555907458170240, guid: f5b6b1a9ae3e1c64f8cfd90ebcfc569d,
        type: 3}
      propertyPath: m_LocalEulerAnglesHint.x
      value: 0
      objectReference: {fileID: 0}
    - target: {fileID: 2006555907458170240, guid: f5b6b1a9ae3e1c64f8cfd90ebcfc569d,
        type: 3}
      propertyPath: m_LocalEulerAnglesHint.y
      value: 0
      objectReference: {fileID: 0}
    - target: {fileID: 2006555907458170240, guid: f5b6b1a9ae3e1c64f8cfd90ebcfc569d,
        type: 3}
      propertyPath: m_LocalEulerAnglesHint.z
      value: 0
      objectReference: {fileID: 0}
    m_RemovedComponents: []
  m_SourcePrefab: {fileID: 100100000, guid: f5b6b1a9ae3e1c64f8cfd90ebcfc569d, type: 3}
