%YAML 1.1
%TAG !u! tag:unity3d.com,2011:
--- !u!65 &6241098755744875814
BoxCollider:
  m_ObjectHideFlags: 0
  m_CorrespondingSourceObject: {fileID: 0}
  m_PrefabInstance: {fileID: 0}
  m_PrefabAsset: {fileID: 0}
  m_GameObject: {fileID: 3273589527446661109}
  m_Material: {fileID: 0}
  m_IsTrigger: 0
  m_Enabled: 1
  serializedVersion: 2
  m_Size: {x: 5.119767, y: 5.1879063, z: 3.6940675}
  m_Center: {x: 0.07112539, y: 2.5939531, z: 0.16004723}
--- !u!1001 &2427239561364544164
PrefabInstance:
  m_ObjectHideFlags: 0
  serializedVersion: 2
  m_Modification:
    m_TransformParent: {fileID: 0}
    m_Modifications:
    - target: {fileID: -8679921383154817045, guid: 6938d47414518684f86eab5e7891aff4,
        type: 3}
      propertyPath: m_RootOrder
      value: 0
      objectReference: {fileID: 0}
    - target: {fileID: -8679921383154817045, guid: 6938d47414518684f86eab5e7891aff4,
        type: 3}
      propertyPath: m_LocalPosition.x
      value: 0
      objectReference: {fileID: 0}
    - target: {fileID: -8679921383154817045, guid: 6938d47414518684f86eab5e7891aff4,
        type: 3}
      propertyPath: m_LocalPosition.y
      value: 0
      objectReference: {fileID: 0}
    - target: {fileID: -8679921383154817045, guid: 6938d47414518684f86eab5e7891aff4,
        type: 3}
      propertyPath: m_LocalPosition.z
      value: 0
      objectReference: {fileID: 0}
    - target: {fileID: -8679921383154817045, guid: 6938d47414518684f86eab5e7891aff4,
        type: 3}
      propertyPath: m_LocalRotation.w
      value: 1
      objectReference: {fileID: 0}
    - target: {fileID: -8679921383154817045, guid: 6938d47414518684f86eab5e7891aff4,
        type: 3}
      propertyPath: m_LocalRotation.x
      value: 0
      objectReference: {fileID: 0}
    - target: {fileID: -8679921383154817045, guid: 6938d47414518684f86eab5e7891aff4,
        type: 3}
      propertyPath: m_LocalRotation.y
      value: 0
      objectReference: {fileID: 0}
    - target: {fileID: -8679921383154817045, guid: 6938d47414518684f86eab5e7891aff4,
        type: 3}
      propertyPath: m_LocalRotation.z
      value: 0
      objectReference: {fileID: 0}
    - target: {fileID: -8679921383154817045, guid: 6938d47414518684f86eab5e7891aff4,
        type: 3}
      propertyPath: m_LocalEulerAnglesHint.x
      value: 0
      objectReference: {fileID: 0}
    - target: {fileID: -8679921383154817045, guid: 6938d47414518684f86eab5e7891aff4,
        type: 3}
      propertyPath: m_LocalEulerAnglesHint.y
      value: 0
      objectReference: {fileID: 0}
    - target: {fileID: -8679921383154817045, guid: 6938d47414518684f86eab5e7891aff4,
        type: 3}
      propertyPath: m_LocalEulerAnglesHint.z
      value: 0
      objectReference: {fileID: 0}
    - target: {fileID: -7511558181221131132, guid: 6938d47414518684f86eab5e7891aff4,
        type: 3}
      propertyPath: m_Materials.Array.data[0]
      value: 
      objectReference: {fileID: 2100000, guid: 2c22d6bd533949b40ae97dd3ee68061c, type: 2}
    - target: {fileID: 919132149155446097, guid: 6938d47414518684f86eab5e7891aff4,
        type: 3}
      propertyPath: m_Name
      value: crystal_18
      objectReference: {fileID: 0}
    m_RemovedComponents: []
  m_SourcePrefab: {fileID: 100100000, guid: 6938d47414518684f86eab5e7891aff4, type: 3}
--- !u!1 &3273589527446661109 stripped
GameObject:
  m_CorrespondingSourceObject: {fileID: 919132149155446097, guid: 6938d47414518684f86eab5e7891aff4,
    type: 3}
  m_PrefabInstance: {fileID: 2427239561364544164}
  m_PrefabAsset: {fileID: 0}
