%YAML 1.1
%TAG !u! tag:unity3d.com,2011:
--- !u!1001 &3148574480718655949
PrefabInstance:
  m_ObjectHideFlags: 0
  serializedVersion: 2
  m_Modification:
    m_TransformParent: {fileID: 0}
    m_Modifications:
    - target: {fileID: 5577267575088126331, guid: 10d4a69c91047fb43bf6b549744fc28b,
        type: 3}
      propertyPath: m_Materials.Array.data[0]
      value: 
      objectReference: {fileID: 2100000, guid: 11c096202cf376d4f872296cbea4bcbb, type: 2}
    - target: {fileID: 6225825435301787822, guid: 10d4a69c91047fb43bf6b549744fc28b,
        type: 3}
      propertyPath: m_Name
      value: crystal_5
      objectReference: {fileID: 0}
    - target: {fileID: 6714096922320265748, guid: 10d4a69c91047fb43bf6b549744fc28b,
        type: 3}
      propertyPath: m_RootOrder
      value: 0
      objectReference: {fileID: 0}
    - target: {fileID: 6714096922320265748, guid: 10d4a69c91047fb43bf6b549744fc28b,
        type: 3}
      propertyPath: m_LocalPosition.x
      value: 0
      objectReference: {fileID: 0}
    - target: {fileID: 6714096922320265748, guid: 10d4a69c91047fb43bf6b549744fc28b,
        type: 3}
      propertyPath: m_LocalPosition.y
      value: 0
      objectReference: {fileID: 0}
    - target: {fileID: 6714096922320265748, guid: 10d4a69c91047fb43bf6b549744fc28b,
        type: 3}
      propertyPath: m_LocalPosition.z
      value: 0
      objectReference: {fileID: 0}
    - target: {fileID: 6714096922320265748, guid: 10d4a69c91047fb43bf6b549744fc28b,
        type: 3}
      propertyPath: m_LocalRotation.w
      value: 1
      objectReference: {fileID: 0}
    - target: {fileID: 6714096922320265748, guid: 10d4a69c91047fb43bf6b549744fc28b,
        type: 3}
      propertyPath: m_LocalRotation.x
      value: 0
      objectReference: {fileID: 0}
    - target: {fileID: 6714096922320265748, guid: 10d4a69c91047fb43bf6b549744fc28b,
        type: 3}
      propertyPath: m_LocalRotation.y
      value: 0
      objectReference: {fileID: 0}
    - target: {fileID: 6714096922320265748, guid: 10d4a69c91047fb43bf6b549744fc28b,
        type: 3}
      propertyPath: m_LocalRotation.z
      value: 0
      objectReference: {fileID: 0}
    - target: {fileID: 6714096922320265748, guid: 10d4a69c91047fb43bf6b549744fc28b,
        type: 3}
      propertyPath: m_LocalEulerAnglesHint.x
      value: 0
      objectReference: {fileID: 0}
    - target: {fileID: 6714096922320265748, guid: 10d4a69c91047fb43bf6b549744fc28b,
        type: 3}
      propertyPath: m_LocalEulerAnglesHint.y
      value: 0
      objectReference: {fileID: 0}
    - target: {fileID: 6714096922320265748, guid: 10d4a69c91047fb43bf6b549744fc28b,
        type: 3}
      propertyPath: m_LocalEulerAnglesHint.z
      value: 0
      objectReference: {fileID: 0}
    m_RemovedComponents: []
  m_SourcePrefab: {fileID: 100100000, guid: 10d4a69c91047fb43bf6b549744fc28b, type: 3}
