%YAML 1.1
%TAG !u! tag:unity3d.com,2011:
--- !u!1001 &2734115603170172367
PrefabInstance:
  m_ObjectHideFlags: 0
  serializedVersion: 2
  m_Modification:
    m_TransformParent: {fileID: 0}
    m_Modifications:
    - target: {fileID: 433017535518478788, guid: 85401447c6530eb4f85ef49e954ba827,
        type: 3}
      propertyPath: m_Name
      value: crystal_19
      objectReference: {fileID: 0}
    - target: {fileID: 957493805788449662, guid: 85401447c6530eb4f85ef49e954ba827,
        type: 3}
      propertyPath: m_RootOrder
      value: 0
      objectReference: {fileID: 0}
    - target: {fileID: 957493805788449662, guid: 85401447c6530eb4f85ef49e954ba827,
        type: 3}
      propertyPath: m_LocalPosition.x
      value: 0
      objectReference: {fileID: 0}
    - target: {fileID: 957493805788449662, guid: 85401447c6530eb4f85ef49e954ba827,
        type: 3}
      propertyPath: m_LocalPosition.y
      value: 0
      objectReference: {fileID: 0}
    - target: {fileID: 957493805788449662, guid: 85401447c6530eb4f85ef49e954ba827,
        type: 3}
      propertyPath: m_LocalPosition.z
      value: 0
      objectReference: {fileID: 0}
    - target: {fileID: 957493805788449662, guid: 85401447c6530eb4f85ef49e954ba827,
        type: 3}
      propertyPath: m_LocalRotation.w
      value: 1
      objectReference: {fileID: 0}
    - target: {fileID: 957493805788449662, guid: 85401447c6530eb4f85ef49e954ba827,
        type: 3}
      propertyPath: m_LocalRotation.x
      value: 0
      objectReference: {fileID: 0}
    - target: {fileID: 957493805788449662, guid: 85401447c6530eb4f85ef49e954ba827,
        type: 3}
      propertyPath: m_LocalRotation.y
      value: 0
      objectReference: {fileID: 0}
    - target: {fileID: 957493805788449662, guid: 85401447c6530eb4f85ef49e954ba827,
        type: 3}
      propertyPath: m_LocalRotation.z
      value: 0
      objectReference: {fileID: 0}
    - target: {fileID: 957493805788449662, guid: 85401447c6530eb4f85ef49e954ba827,
        type: 3}
      propertyPath: m_LocalEulerAnglesHint.x
      value: 0
      objectReference: {fileID: 0}
    - target: {fileID: 957493805788449662, guid: 85401447c6530eb4f85ef49e954ba827,
        type: 3}
      propertyPath: m_LocalEulerAnglesHint.y
      value: 0
      objectReference: {fileID: 0}
    - target: {fileID: 957493805788449662, guid: 85401447c6530eb4f85ef49e954ba827,
        type: 3}
      propertyPath: m_LocalEulerAnglesHint.z
      value: 0
      objectReference: {fileID: 0}
    - target: {fileID: 2090408376096239633, guid: 85401447c6530eb4f85ef49e954ba827,
        type: 3}
      propertyPath: m_Materials.Array.data[0]
      value: 
      objectReference: {fileID: 2100000, guid: 5113c693f224227419fa9e4a823bee10, type: 2}
    m_RemovedComponents: []
  m_SourcePrefab: {fileID: 100100000, guid: 85401447c6530eb4f85ef49e954ba827, type: 3}
